<svg xmlns="http://www.w3.org/2000/svg" width="638.068" height="622.493" viewBox="0 0 638.068 622.493">
  <defs>
    <style>
      .cls-1 {
        fill: none;
        stroke: #fff;
        stroke-miterlimit: 10;
      }

      .cls-2 {
        fill: #455aa9;
      }

      .cls-3 {
        fill: #fbac2e;
      }

      .cls-4 {
        fill: #fff;
      }
    </style>
  </defs>
  <g id="Groupe_646" data-name="Groupe 646" transform="translate(-64.291 -87.318)">
    <g id="Groupe_645" data-name="Groupe 645" transform="translate(177.001 167.376)">
      <path id="Tracé_279" data-name="Tracé 279" class="cls-1" d="M271.514,133.111a86.437,86.437,0,0,1,16.85,4.186c9.131,3.261,4.566,10.436,2.609,15.652s-2.609,7.173-.652,13.695a36.8,36.8,0,0,1,1.955,13.045c0,3.913,7.175,5.216,5.218,7.825a45.7,45.7,0,0,1-5.87,5.87s-1.955,7.825-7.173,9.129-6.522,6.524-6.522,6.524,7.825,5.868,2.609,7.173-8.479,10.434-8.479,10.434l-9.782,2.609H251.843l-5.87,7.825,3.913,11.74s0,7.825-5.868,10.434,8.477,13.043,3.913,16.3,0,4.566,1.3,8.479-7.825,8.477-8.477,12.391-2.609,6.522-7.827,11.086-1.955,11.086-13.043,7.825-5.87-1.3-11.086,0-1.305,1.957-1.305,9.782-.652,6.522-4.564,10.436,1.3,16.956,3.913,18.259,5.218-1.955,8.479,3.915,1.955,5.868,14.347,3.913.652,9.129,12.391,15.65,2.609,6.522,3.261,13.045,16.3,15.65,19.565,15.65,5.218,7.175,13.043,3.261.652-3.913,7.825-4.564,17.609,1.3,29.349-1.957,18.911-1.955,28.042-6.522-3.913-12.391,1.306-14.347,5.216-1.306,7.173-3.913,4.564-1.957,10.434-1.957,2.609,0,1.957-4.564.652-5.218,1.955-7.173-.652-4.566-3.261-7.827,1.957-9.131.652-11.086-6.522-5.218-5.868-9.131,1.955-5.87,0-7.827-1.305-6.522.652-13.043-1.305-7.825-8.479-11.086,11.088-5.87,8.479-11.086,12.391-3.915,7.825-11.088-8.477-5.87-6.522-9.131,1.306-5.87,2.609-11.738,11.086-3.261,15-3.261,7.825-6.522,5.216-10.436,7.173-6.522,5.87-9.129-7.825-7.827-7.825-13.7,7.173-9.129,11.738-13.695-1.3-7.173-2.609-10.434,5.218-5.218,1.957-10.434,3.261-3.261,7.827-7.827,9.413-18.182,9.413-18.182l6.614-10.4.946-9.921,6.614-4.253" transform="translate(-63.276 -133.111)"/>
      
      <path id="Tracé_280" data-name="Tracé 280" class="cls-1" d="M185.357,493.629s-1.248-7.614,2.667-9.571,7.173-6.522,9.782-9.131,3.913-1.3,7.173-8.477,7.173-7.827,3.261-12.391-1.305-6.522-6.522-9.782-12.391-3.261-11.088-8.479,5.87-11.738,5.87-16.956,3.913-10.434,11.74-9.131,17.608-5.87,22.826-4.564,3.913-3.913,14.347-1.957,1.305-2.609,8.479-4.564,9.131-3.261,6.522-6.522-3.913-8.479-3.913-8.479l5.216-6.522,5.218,3.913.652-7.825s-.652-6.522,1.305-7.825,5.216-1.957,9.129-5.218,0-5.218,5.87-9.131,5.87-5.87,5.87-11.74-7.173-9.129,0-10.434,7.173.652,11.74,1.306,3.52,11.217,8.477,9.129c0,0-.652-3.913,7.173-5.216s8.479,0,10.436,3.913,6.522,14.347,3.913,16.956,1.3,6.522,3.261,7.175,3.261-2.609,7.825-1.957,7.175-9.783,10.436-12.391,8.477-9.131,12.389-9.131,6.522,6.522,6.522,9.131,1.957,9.131,7.175,11.088-2.609-11.74,1.3-15,9.131.652,13.043-3.261,1.957-7.173,6.522-5.218-2.609,10.434,2.609,11.088,3.913-3.914,8.477-3.261,8.479,1.3,11.74,3.913,1.305,9.782,5.218,13.043,1.3,9.782,1.955,13.043,4.566.652,7.175,5.218-5.218,9.129,2.607,7.173,11.088-3.261,13.7-3.261,7.825-.652,7.825-.652l9.131,5.868,3.261,3.914.652,9.129s4.941,2.307,5.218,3.914c.4,2.317-5.218,7.825-5.218,7.825l1.957,12.391-4.566,7.173-7.173,4.566c-4.564,6.522-7.825,1.3-11.086,8.477s-3.261,9.131-3.261,9.131" transform="translate(-78.368 47.075)"/>
      
      <path id="Tracé_281" data-name="Tracé 281" class="cls-1" d="M163.3,188.062s-.606,4.364,3.307,5.67,3.8,2.428,9.013,2.428,8.477-3.913,12.39-1.3,2.246,1.994,8.479,3.913c8.479,2.609,7.173,1.957,11.74,2.609s3.261-3.913,11.086-5.87,12.391-7.173,12.391-3.261-2.609,11.74,2.609,13.043,13.695-7.173,17.608-5.87.652,3.913,3.913,7.175,4.566,1.3,11.74,6.52a50.806,50.806,0,0,0,13.695,7.175l3.913,1.3" transform="translate(-98.574 -82.411)"/>
      
      <path id="Tracé_282" data-name="Tracé 282" class="cls-1" d="M129.619,269.053s7.917-7.7,10.526-5.093-6.522,6.522-.652,6.522,9.131-3.261,13.043-3.261,3.913-6.522,3.913-6.522l9.782-8.479h15l10.434-8.477c11.086-1.305,3.913,6.522,11.738,5.87s5.87-2.609,7.827-8.479-.652-7.173,1.3-10.434-.652-12.391-.652-12.391l1.957-7.173s2.609-6.522.652-11.74.652-8.479.652-8.479" transform="translate(-129.619 -79.777)"/>
      
      <path id="Tracé_283" data-name="Tracé 283" class="cls-1" d="M286.039,259.775l3.261,4.566c3.261,4.564,12.39,0,12.39,0s3.914,5.87,7.175,4.564,1.955-8.479,5.868-7.173,3.914,3.261,6.523,10.434,13.043,7.173,16.956,9.782,0,9.131-1.957,11.088-7.825,0-7.825,3.912-3.913,7.825,3.261,7.825,12.391-1.955,15.652-.652,7.825.652,10.434-4.564-1.957-2.609,5.216-1.957,9.131-5.87,10.436-2.609-5.87,9.782,1.955,8.479,8.479-13.043,11.088-18.913,3.913-5.87,9.782-5.87,3.261,9.131,8.477,11.088a36.18,36.18,0,0,0,11.088,1.955s5.87-.652,7.173,1.306,12.391,0,12.391,0l7.825-8.479,9.131-4.564" transform="translate(14.701 -16.245)"/>
      
      <path id="Tracé_284" data-name="Tracé 284" class="cls-1" d="M268.006,272.326c1.957,1.3-1.955,8.477,4.566,11.086s9.129,5.87,12.39,7.827,5.218,6.522,2.609,7.825-2.609,3.261.652,5.218,7.175,3.913,3.261,7.173l-11.738,9.782s.652,8.477,3.913,13.7.06,20.536-2.609,20.87c0,0-1.3,3.913-8.477,7.825s-9.131,8.479-7.827,10.434,9.131,2.609,3.261,5.218-9.782,5.87-9.782,7.825" transform="translate(-10.963 -4.665)"/>
      
      <path id="Tracé_285" data-name="Tracé 285" class="cls-1" d="M165.394,316.914s3.047-6.952,10.221-6.952,1.957,4.564,7.827,3.913,5.868-6.522,13.043-5.218,4.564-5.868,4.564-5.868c2.609-8.479-6.522-14.349-5.218-20.87s1.957-11.74-2.607-15-7.175-8.477-1.957-9.129,3.261,3.913,7.173,2.609,3.261-1.305,7.827-6.522,5.868-3.261,10.434-3.261,4.537.586,9.131-1.305l9.129-7.173" transform="translate(-96.611 -32.519)"/>
      
      <path id="Tracé_286" data-name="Tracé 286" class="cls-1" d="M295.2,197.362s2.609,3.914,4.564,7.173-.652,7.175,3.914,7.827,8.477-1.305,10.434,1.3,6.522,6.522,6.522,9.782,2.609,5.87,13.043,5.218,11.086,5.87,16.3-.652,5.87-9.782,10.434-7.173,11.74.652,9.782,3.913,1.771,3.984,2.609,5.87a30.241,30.241,0,0,1,2.609,11.086s.652,5.87,9.131,11.086,13.695,1.305,15.652-1.955c0,0-1.957-1.957,7.825-4.566s0-8.477,3.913-10.434-3.261,4.566,5.87-4.564,1.957-13.7,9.131-9.131,2.609-7.827,7.173-5.218,5.87,6.522,10.434,5.87,15,0,16.956.652,3.261,4.566,6.522,7.175,16.306,2.607,16.306,7.173-1.957,11.086-1.957,11.086a76.207,76.207,0,0,0,9.131,5.87c3.913,1.957,3.17,11.19,3.17,11.19" transform="translate(23.15 -73.83)"/>
      
      <path id="Tracé_287" data-name="Tracé 287" class="cls-1" d="M248.726,165.477a18.935,18.935,0,0,0,7.827,1.957s9.131-2.609,13.043-1.305,2.609,5.218,6.522,3.261,6.522-3.913,9.782-1.3,3.265,4.687,5.218,4.564c0,0,13.97.292,16.3,0,0,0,13.043-3.913,16.3-1.955s-.654,6.522,4.564,9.782,10.434,5.87,10.434,5.87" transform="translate(-19.726 -103.249)"/>
      
      <path id="Tracé_288" data-name="Tracé 288" class="cls-1" d="M243.978,175.314s3.913,5.87,2.607,9.131-2.607,10.434,1.957,12.391,4.564,12.391,7.825,13.043,5.218,4.564,7.827,5.87-1.305,7.173,2.609,8.477,3.261-1.3,7.173-1.3,6.522-2.609,9.131-1.957,4.564,4.566,9.131,6.522-3.22,6.966.652,7.827c0,0,12.391,1.955,15,0s3.915-4.566,5.87-3.261,6.522,1.955,6.522,1.955" transform="translate(-24.107 -94.173)"/>
      
      <path id="Tracé_289" data-name="Tracé 289" class="cls-1" d="M447.542,324.706l-6.408-2.857-5.218,5.87c0,4.564-9.782-6.522-14.347-3.913s-7.825,7.173-4.564,7.825,10.434,1.305,8.477,5.87-7.173,5.87-10.434,5.87-3.913,1.3-10.434,5.216-8.479,1.305-8.479,5.218,1.957,8.479-5.87,10.434-5.868,6.522-5.868,9.782-3.914.654-5.87,4.566-3.913,8.477,1.955,7.825,9.131-.652,9.782,2.609,0,3.261-1.955,6.522-.652,3.261-5.87,4.564-11.086-4.564-11.086-4.564c-13.045-.652-8.354-4.737-15-3.261,0,0-11.088,1.3-15.652,1.3h-7.173" transform="translate(58.515 41.027)"/>

    </g>
    <g id="Groupe_648" data-name="Groupe 648" transform="translate(64.291 87.318)">

      <path id="Tracé_291" data-name="Tracé 291" class="cls-2" d="M223.683,549.745c2.6-1.3,4.925-3.919,6.981-6.232.775-.873,1.5-1.692,2.185-2.374a11.784,11.784,0,0,1,2.144-1.679c1.329-.863,2.477-1.61,4.566-6.2a31.937,31.937,0,0,1,3.087-5.271c1.773-2.564,2.248-3.254.187-5.661a12.431,12.431,0,0,1-2.664-4.934c-.492-1.568-.849-2.7-3.394-4.289a27.742,27.742,0,0,0-4.934-2.246c-3.531-1.335-7.182-2.716-6.134-6.912a41.037,41.037,0,0,1,2.6-6.652c1.484-3.259,3.019-6.629,3.019-9.43a9.942,9.942,0,0,1,3.385-7.654c1.59-1.348,4.441-2.793,8.979-2.037,3.766.632,8.249-.995,12.207-2.425,3.858-1.4,7.191-2.6,9.813-1.95a3.929,3.929,0,0,0,3.638-.679c1.773-1.054,3.978-2.368,10.1-1.213,3.405.636,4.11.429,4.241.348-.061.022-.089-.235-.105-.414-.111-1.131-.314-3.239,3.6-4.307,1.86-.507,6.217-1.7,6.617-2.925.131-.4-.148-1.028-.824-1.875a25.8,25.8,0,0,1-3.938-8.508l-.111-.444,5.862-7.326,4.394,3.3.49-5.86c-.113-.969-.569-6.729,1.662-8.216a17.249,17.249,0,0,1,2.527-1.289,24.372,24.372,0,0,0,6.173-3.67,4.231,4.231,0,0,0,1.725-3.159c.25-1.579.534-3.37,4-5.679C321,418.389,321,416.9,321,411.361a10.112,10.112,0,0,0-1.843-5.115c-.852-1.442-1.59-2.688-1.033-3.9.436-.956,1.557-1.549,3.636-1.928,4.831-.874,6.567-.253,8.4.4a14.62,14.62,0,0,0,3.18.843c2.583.37,3.59,3.076,4.479,5.465.575,1.54,1.167,3.134,1.993,3.488a1.076,1.076,0,0,0,.645.055,4.261,4.261,0,0,1,.778-1.887c1.187-1.664,3.5-2.793,6.87-3.354,4.256-.712,6.517-.618,8.038.288,1.562-2.4,5.666-4.879,9.3-6.493a5.761,5.761,0,0,0,1.422-.806,11.38,11.38,0,0,0-1.815-.893,7.141,7.141,0,0,1-3.135-1.96,3.679,3.679,0,0,1-.372-2.976c.706-2.862,3.7-5.916,8.223-8.38,6.419-3.5,7.709-6.981,7.722-7.016l.19-.54.569-.078c.157-.07.813-.773,1.558-3.069,1.619-5,2.132-12.627.279-15.592-3.219-5.147-3.873-13.244-3.9-13.586l-.039-.475,11.654-9.711c.593-.5,1.29-1.22,1.24-1.867-.085-1.054-1.993-2.183-3.675-3.182l-.584-.348c-1.963-1.179-2.934-2.448-2.882-3.775.03-.791.458-1.93,2.318-2.86a1.14,1.14,0,0,0,.649-1.1c.054-1.357-1.229-3.614-3.219-4.808a31.6,31.6,0,0,1-3.134-2.255,32.4,32.4,0,0,0-8.65-5.206c-4.649-1.858-4.5-5.875-4.4-8.532.013-.348.031-.837.02-1.27-1.411.29-2.865.619-4.439,1.056-7.742,2.152-14.987,1.982-20.82,1.839a70.076,70.076,0,0,0-7.561.072,26.094,26.094,0,0,0-2.716.346c-.2,1.02-.841,2.13-4.479,3.951a10.212,10.212,0,0,1-4.559,1.229c-2.738,0-4.537-1.555-5.973-2.8-.915-.791-1.7-1.473-2.424-1.473-3.775,0-19.053-9.083-19.731-15.882a7.815,7.815,0,0,1,1.762-5.535c.642-.934,1-1.488.869-2.041-.233-1-2.015-2.427-5.3-4.248-6.007-3.337-6.114-7.879-6.193-11.2-.039-1.61-.068-2.882-.751-3.452-.662-.553-2.135-.654-4.378-.3l-1.081.172c-9.841,1.555-10.425,1.649-12.932-3.045-.22-.41-.46-.86-.734-1.355-1.806-3.25-3.106-3.141-4.749-3.01a5.341,5.341,0,0,1-3.01-.373c-1.784-.893-4.082-5.472-5.1-9.928l-7.931,6.193c-3.622,1.49-4.485,1.459-6.8,1.374-.627-.024-1.372-.052-2.333-.052a21.625,21.625,0,0,1-2.792-.207c-2.344-.285-3.52-.431-6.546,3.028-.823.939-1.468,1.7-2,2.331-2.407,2.843-2.721,3.137-5.931,4.208-2.451.815-3.317-.381-3.947-1.252-.593-.825-1.065-1.472-3.128-1.216-1.124.141-1.771.512-1.921,1.1-.307,1.216,1.22,3.86,4.224,6.006,4.823,3.444,4.2,8.763,2.878,15.357-.5,2.5.895,5.051,2.37,7.757,1.891,3.468,4.028,7.389,2.708,12.113.292.947.956,3.688-.51,5.424-1,1.183-2.684,1.566-5.014,1.146-3.459-.632-4.831.58-6.572,2.113a9.714,9.714,0,0,1-5.7,2.912c-3.2.36-3.834-.825-4.241-2.17-.257-.85-.479-1.586-3.387-1.586a9.811,9.811,0,0,0-8.073,4.568,1.524,1.524,0,0,1,.49.776c.03.279-.575.721-1.974,1.035-4.71,1.065-6.835-.416-9.292-2.132-.42-.292-.837-.584-1.266-.861-2.413-1.575-5.929-2.549-7.635-1.459a2.283,2.283,0,0,0-.993,2.326c.407,3.537,7.794,5.945,8.807,5.945,1.106,0,6.385.7,8.1,1.854.44.3,1.309.8,2.372,1.407,1.917,1.094,6.855,3.91,7.583,5.154-2.932,1.316-5.187,2.305-5.189,2.307l-.976.431.588.9c.142.222,3.477,5.472-.63,9.39a12.081,12.081,0,0,1-2.352,2.494c-.006-.072-.009-.161-.009-.268v-6.574c.7-1.961,1.178-5.35-1.213-6.374-.669-.294-1.446-.56-2.231-.83-1.59-.544-3.566-1.22-3.89-2.048-.486-1.218-1.527-2.409-2.7-2.152-1.329.3-1.841,2.122-1.662,5.9.205,4.533,1.843,5.494,3.8,6.212.9.331,1.5.549,1.873,1.486a23.394,23.394,0,0,1,1.078,4.7,30.932,30.932,0,0,0,1.9,7.445A11.872,11.872,0,0,0,187,355.045a5.927,5.927,0,0,1,1.429.939c.248.5.924,1,2.843,2.376,4.256,3.049,13.115,9.391,13.586,16.135.226,3.248.756,6.971,1.3,10.4a29.639,29.639,0,0,0-2.958-7.223c-2.111-3.536-5.232-6.225-7.739-8.386-1.636-1.411-3.182-2.742-3.394-3.505a10.858,10.858,0,0,1,.015-3.392c.165-1.682.285-2.9-.486-3.49a1.33,1.33,0,0,0-1.37-.126l-.4.157c-1.788.7-5.119,2-5.119,5.738,0,1.932-.573,8.364-1.033,13.533-.385,4.311-.619,6.992-.619,7.685-.022.54-.906,4.233-1.841,8.147-2.294,9.6-5.762,24.118-5.762,29.243,0,1.852.209,3.141,1.226,3.4,1.253.331,2.163-1.248,3.782-4.289a29.811,29.811,0,0,1,1.5-2.66c.919-.216,5.552,1.858,6.112,3.341.044.115.083.216-.288.442-2.921,1.78-4.984,1.416-5,1.412-2.008-.4-2.461-.03-2.653.133a.946.946,0,0,0-.366.671,41.247,41.247,0,0,1-1.895,3.851l-.1.336c-.067.61-6.733,61.068-20.831,73.155l-.146.159c-1.688,2.361-6.844,8.652-10.379,9.412-2.963.651-3.943,2.359-3.873,3.742a3.5,3.5,0,0,0,3.3,3.1,21.659,21.659,0,0,0,3.566.133,3.805,3.805,0,0,0,.172,2.729,1.23,1.23,0,0,0,1,.512,8.3,8.3,0,0,1,1.015.148c1.921.325,5.5.932,8.526-.2,1.063-.392,1.871-.4,2.265-.03a2.893,2.893,0,0,1,.222,2.642c-.614,2.2-3.806,7.434-3.8,7.434-.074.091-1.771,2.322,1.342,5.879,1.984,2.265,3.969,3.311,5.3,2.788a2,2,0,0,0,1.207-2.05,9.951,9.951,0,0,1,.762-4.1l.03.031a21.88,21.88,0,0,1,2.845,3.851l.257.453h4.74l.682,3.488.837-.129c.041,0,3.953-.575,6.589,1.5,1.947,1.544,4.675,1.677,7.315,1.8a19.735,19.735,0,0,1,5.171.7c3.339,1.146,3.692,6.548,3.7,6.6l.092,1.573,1.285-.873a2.743,2.743,0,0,1,1.91-.34,3.513,3.513,0,0,1,2.126,1.758c2.7,4.348,5.7,3.74,8.868,3.1a11.088,11.088,0,0,0,3.814-2.035,12.792,12.792,0,0,1,2.884-1.679C220.836,553.032,221.637,550.769,223.683,549.745Z" transform="translate(-25.742 27.539)"/>

      <path id="Tracé_292" data-name="Tracé 292" class="cls-2" d="M447.512,434.763a7.025,7.025,0,0,0,5.039-3.424l.261-.248,6.726-4.28,4.093-6.43-1.9-12.041.34-.333c2.44-2.4,4.932-5.663,4.751-6.709-.129-.573-2.27-2.043-4.494-3.082l-.492-.229-.647-9.023-2.853-3.426-8.378-5.385c-1.178.141-5.119.593-7.306.593-1.5,0-3.346.516-6.411,1.368-1.738.481-3.86,1.07-6.535,1.74-2.27.568-3.618.719-4.283-.083-.629-.76-.189-1.714.279-2.725.61-1.318,1.368-2.956.47-4.527a4.947,4.947,0,0,0-3.8-2.592c-1.244-.287-2.79-.645-3.2-2.7a15.137,15.137,0,0,1,.041-4.067c.268-2.875.569-6.134-1.608-7.948-2.23-1.858-2.7-4.8-3.115-7.391-.342-2.141-.667-4.163-1.886-5.139-2.856-2.285-6.295-2.921-10.841-3.568a2.753,2.753,0,0,0-2.95,1.191,5.158,5.158,0,0,1-5.186,1.947,3,3,0,0,1-2.217-1.187c-.884-1.27-.47-3.043-.03-4.919.581-2.49.837-4.043-.512-4.622-1.858-.795-1.869-.773-2.546.723a12.494,12.494,0,0,1-2.708,4.1c-2.246,2.252-4.9,2.156-7.247,2.061-2.05-.078-3.829-.141-5.356,1.128-1.435,1.2-.525,5.195.137,8.116.7,3.061,1.2,5.274.043,6.284a2.2,2.2,0,0,1-2.35.179c-5.3-1.985-7.5-8.487-7.5-11.525,0-2.278-2.315-7.853-5.348-7.853-2.346,0-5.644,3.2-8.3,5.777-1.1,1.067-2.139,2.076-3.041,2.8-1.046.837-2.145,2.875-3.207,4.845-1.958,3.629-4.174,7.739-7.533,7.264a6.237,6.237,0,0,0-4.585,1.1,3.589,3.589,0,0,1-3.1.74,7.988,7.988,0,0,1-4.489-4.906,3.59,3.59,0,0,1,.995-3.522c1.594-1.6-.838-9.042-3.936-15.239a9.241,9.241,0,0,0-1.873-2.921h-.107c0-.024.007-.05.007-.074-1.165-.919-2.954-.958-7.084-.268-6.4,1.067-6.147,3.856-6.132,3.973l.079.691-.638.292a3.276,3.276,0,0,1-2.64.1c-1.549-.669-2.25-2.549-2.991-4.54s-1.514-4.065-3.01-4.278a16.57,16.57,0,0,1-3.542-.934c-1.736-.623-3.108-1.115-7.45-.327-1.956.355-2.246.793-2.285.876-.153.335.455,1.366.945,2.194a11.745,11.745,0,0,1,2.1,6.054c0,5.672,0,8.018-6.056,12.055-2.79,1.862-2.978,3.05-3.2,4.431a6,6,0,0,1-2.365,4.289,26.028,26.028,0,0,1-6.6,3.938,16.285,16.285,0,0,0-2.255,1.139c-.847.564-1.122,3.9-.847,6.663l-.765,9.36-5.637-4.228-4.163,5.2a23.387,23.387,0,0,0,3.47,7.367c.706.882,1.592,2.217,1.141,3.6-.6,1.83-3.235,2.865-7.892,4.136-2.413.658-2.339,1.4-2.248,2.344a2.167,2.167,0,0,1-.5,1.972c-.791.721-2.313.745-5.812.089-5.437-1.019-7.234.046-8.818.987a5.761,5.761,0,0,1-5.03.884c-2.076-.523-5.309.653-8.737,1.893-4.169,1.51-8.89,3.22-13.139,2.512-3.043-.5-5.627.055-7.48,1.621a8.108,8.108,0,0,0-2.732,6.245c0,3.2-1.619,6.759-3.185,10.2a39.772,39.772,0,0,0-2.486,6.332c-.592,2.366.984,3.22,4.993,4.735a29.7,29.7,0,0,1,5.261,2.409c3.124,1.954,3.636,3.581,4.178,5.3a10.576,10.576,0,0,0,2.3,4.287c2.991,3.487,1.773,5.247-.07,7.914a30.415,30.415,0,0,0-2.925,4.984c-2.311,5.084-3.734,6.008-5.243,6.986a10.213,10.213,0,0,0-1.843,1.436c-.66.66-1.363,1.453-2.111,2.294-2.165,2.437-4.62,5.2-7.535,6.659-1.274.636-1.863,2.194-2.1,3.831a3.035,3.035,0,0,1,.852.673c.686.771,1.374,1.632,2.078,2.514,2.736,3.424,5.838,7.308,10.355,7.881,4.479.584,10.17-1.113,12.214-1.793a6.179,6.179,0,0,0,5.415,3.485c1.085,0,2.374-.028,3.8-.061,3.355-.078,7.526-.166,11.676.059,1.627.1,3.056.214,4.278.314,3.947.331,5.748.479,6.189-.923a8.119,8.119,0,0,0-.192-3.1c-.205-1.368-.745-5-.189-5.513a3.079,3.079,0,0,0,1.239-2.169c.026-.12.061-.281.094-.4a7.91,7.91,0,0,1,1.991,1.191c4.823,3.5,5.951,3.864,12.083,3.864,3.845,0,6.029,2.328,7.474,3.868a4.6,4.6,0,0,0,1.884,1.5c.745.194,2.934.575,5.252.978,1.965.342,3.967.69,5.043.917.784.159,1.568,1.159,2.326,2.124,1.011,1.289,2.156,2.749,3.8,2.749.634,0,1.69-.026,2.939-.057,3.028-.074,7.557-.183,9.312.026-.324,1.032-.7,2.977,2.335,5.857a14.912,14.912,0,0,0,7.58,3.651c1.738.4,2.74.664,3.139,1.466a4.377,4.377,0,0,1,.218,2.57c-.159,1.357-.373,3.215,2.222,4.282,3.243,1.316,8.142,3.3,14.207-3.607,3.043-3.476,5.35-1.906,9.168,1.183a20.561,20.561,0,0,0,5.742,3.686c1.006.357,1.893.715,2.707,1.045a14.671,14.671,0,0,0,5.444,1.466c1.841,0,3.845-.688,6.533-2.625,1.477-1.067,2.812-2.117,4.054-3.095,3.745-2.945,6.45-5.073,9.628-5.073,1.854,0,3.084-.163,3.89-.991,1.056-1.089,1.035-2.926,1-6.587-.007-.819-.019-1.736-.019-2.764,0-8.421.019-27.943.019-27.943v-.4l-.288-.272c-1.056-.985-3.9-3.921-4.4-5.646l-.006-.03c.137.026.283.059.418.089a15.194,15.194,0,0,0,3.39.425c4.049,0,5.589-1.973,6.949-3.712a7.569,7.569,0,0,0,1.1-3.086c.372-1.773.666-2.856,1.618-2.973.538-.072,1.161-.1,1.843-.124,2.72-.115,6.441-.27,9.552-3.148,1.471-1.37,2.145-1.368,3.039-1.362,1.205.007,2.664.007,5.5-2.311l1.133-.932C417.315,438,425.888,432.68,428.824,433.61a1.092,1.092,0,0,1,.752.852c1.8,6.4,4.108,6.419,7.694,5.921.568-.078,1.176-.163,1.828-.216.669-.054,1.54-.089,2.522-.105.065-.142.122-.275.189-.422C443.628,435.638,445.6,435.192,447.512,434.763Z" transform="translate(10.927 100.462)"/>

      <path id="Tracé_293" data-name="Tracé 293" class="cls-2" d="M439.9,327.352a1.731,1.731,0,0,1-.849,1.42c-1.211.673-2.886-.368-5.413-1.947-2.6-1.619-6.16-3.842-7.981-2.806-3.344,1.911-5.335,4.581-5.186,5.507.009.054.033.213.52.309.342.068.728.137,1.144.211,2.727.479,6.461,1.139,7.68,3.392a3.665,3.665,0,0,1,0,3.313c-1.963,4.577-7.09,6.2-10.883,6.2-1.947,0-2.721.507-5.285,2.189-1.078.7-2.433,1.594-4.272,2.7a19.4,19.4,0,0,1-6.2,2.5c-1.5.349-1.5.349-1.5,1.725,0,.6.05,1.216.1,1.836.262,3.267.592,7.336-6.446,9.1-5.54,1.385-5.3,4.026-5.045,6.824.052.586.1,1.152.1,1.684,0,2.3-1.68,2.631-2.792,2.853a3.475,3.475,0,0,0-2.949,1.95c-.7,1.4-2.344,4.685-1.6,5.744.307.442,1.211.6,2.557.451,4.694-.523,9.552-1.067,10.412,3.244.557,2.771.185,3.518-1.07,5.457-.263.4-.569.882-.924,1.47-.4.665-.649,1.183-.852,1.6-.939,1.932-1.44,2.233-5.359,3.213a7.159,7.159,0,0,1-1.74.207c-4.311,0-8.458-3.585-9.537-4.59-6.8-.381-8.7-1.78-9.972-2.712-.921-.677-1.344-.985-3.858-.423-.531.067-10.856,1.274-15.25,1.274h-4.923l2.061,2.475.61,8.541c1.73.847,4.76,2.555,5.045,4.208.4,2.328-3.322,6.374-4.94,8l1.862,11.791-4.862,7.478-6.746,4.293a8.793,8.793,0,0,1-6.04,4.014c-1.662.373-2.884.675-4.248,3.479,4.925.02,11.369.379,13.4,1.05a18.035,18.035,0,0,1-1.754,1.242c-1.285.836-2.394,1.56-2.577,2.668a1.986,1.986,0,0,0,.455,1.562c1.435,1.815,10.887,2.246,14.847,2.348,2.623.168,7.116.176,7.792-1.725.49-1.374-1.078-2.549-1.6-2.936-1.457-1.087-2.013-2.152-1.915-2.725a.49.49,0,0,1,.39-.4c.584-.176,2.045.056,3.882,2a9.054,9.054,0,0,0,8.685,5.463h7.924l.185-.02a19.233,19.233,0,0,1,3.5-.427,2.14,2.14,0,0,0,.259,2.917,1.7,1.7,0,0,1,.268.36.516.516,0,0,1-.081.205,17.74,17.74,0,0,1-1.22,1.773c-1.128,1.518-1.81,2.437-1.392,3.293a1.186,1.186,0,0,0,1.13.647c.307,0,.9-.074,2.1-.229,3.453-.444,12.629-1.627,15.263.085,1,.654,1.876,1.281,2.675,1.851a16.344,16.344,0,0,0,5.021,2.828,3.809,3.809,0,0,0,.684,2.727c.965,1.263,2.779,1.765,5.406,1.5a12.858,12.858,0,0,0,5.768-2c1.832-1.076,2.934-1.727,6.674-.1.4.177.732.333,1,.464-.031,0-.061,0-.089.007-1,.074-1.79.135-1.91.974s.719,1.146,1.037,1.27c2.828,1.087,7.206.421,7.391.392l.858-.133-.109-.876a14.134,14.134,0,0,1-.03-3.69,5.924,5.924,0,0,1,3.888-1.692h.048c.819.013.959.348,1.007.455.751,1.78,1.664,2.684,2.708,2.684.911,0,1.662-.677,2.226-2.011.181-.431.333-.891.486-1.359.667-2.048,1.244-3.819,4.971-3.819,5.422,0,11.342-2.664,11.591-2.777l.747-.34-.272-.788c-1.8-5.234-2.9-6.138-3.492-6.295a3.573,3.573,0,0,1,.122-1.921,1.637,1.637,0,0,1,.841-1.056,1.382,1.382,0,0,0,.993-.952,1.808,1.808,0,0,0-.68-1.636c-.148-.161-.421-.46-.464-.492.009-.018.246-.425,2.08-.947a30.6,30.6,0,0,1,4.962-.98,7.9,7.9,0,0,0,5.3-2.257c1.688-1.514,1.784-3.744,1.862-5.533.1-2.287.266-2.66,1.194-2.66,3.9,0,6.692-.381,8.552-2.278a4.911,4.911,0,0,0,1.12-3.509c.048-1.253.137-1.534.523-1.667l1.035-.344a24.986,24.986,0,0,0,5.091-2.095,30.522,30.522,0,0,0,4.283-3.66l3.453-.961c1.642-.538,7.029-2.477,7.454-4.9a2.114,2.114,0,0,0-.9-2.069,6.571,6.571,0,0,0-2.66-1.392,19.685,19.685,0,0,1,1.86-3.79l.148-.226v-3.448l3.05-1.7a7.436,7.436,0,0,0,4.888-7.313,9.872,9.872,0,0,0-3.378-6.929,1.851,1.851,0,0,0-.1-1.673c-.66-1.017-2.23-1.113-5.239-.3-2.257.6-4.8,1.579-7.251,2.518-2.862,1.1-7.186,2.747-7.916,2.337-1.37-2.8-6.062-7.325-14.96-6.936-.407-1.745-1.368-4.947-3.025-5.637a2.67,2.67,0,0,1-1.285-1.139,2.872,2.872,0,0,0-1.414-1.235l-.408-.137a7.174,7.174,0,0,1,.213-2.555c1.287-.579,1.483-3.065,1.483-4.524v-.623l-4.709-1.845c-.262-.268-.564-.708-.525-.928.013-.081.174-.272.678-.466,3.47-1.329,4.553-3.1,4.847-4.335a23.718,23.718,0,0,0,.059-5.243l5.6-5.346-4.056-4.836c.555-.847,1.307-2.315.824-3.511a2.4,2.4,0,0,0-2.2-1.388,38.3,38.3,0,0,0-5.919.179,34.374,34.374,0,0,1-4.269.174,4.693,4.693,0,0,0-.64-1.231,4.492,4.492,0,0,1-.935-2.6,9.524,9.524,0,0,1,.111-1.351c.211-1.57.25-2.69-1.546-5.84l-.292-.512-3.013.349c-.765-1.2-1.913-3.5-1.645-5.23l-2.026-.9Z" transform="translate(129.338 94.988)"/>

      <path id="Tracé_294" data-name="Tracé 294" class="cls-2" d="M205.182,350.723c3.949,0,4.712,1.433,5.158,2.9.231.767.325,1.089,2.267.867a7.973,7.973,0,0,0,4.683-2.461c1.777-1.564,3.792-3.337,8.125-2.547,1.124.205,2.6.281,3.27-.516.858-1.017.335-3.211.085-3.9l-.105-.292.091-.3c1.265-4.106-.64-7.6-2.479-10.97-1.642-3.01-3.191-5.851-2.56-9.005,1.226-6.128,1.79-10.684-2.139-13.488-2.84-2.03-5.6-5.385-4.942-7.968.244-.963,1.046-2.178,3.483-2.481,3.141-.4,4.176,1.026,4.857,1.967.551.762.7.967,1.863.58,2.808-.935,2.851-.987,5.1-3.647.536-.634,1.187-1.4,2.017-2.353,3.5-4,5.293-4,8.164-3.646a20.25,20.25,0,0,0,2.566.192c.989,0,1.756.03,2.4.052,2.109.078,2.76.1,5.907-1.187l8.386-6.589c-.425-3.222.07-5.659,1.464-7.055.747-.745,1.372-1.3,1.895-1.76,1.971-1.745,2.224-1.969,2.224-7.618a17.923,17.923,0,0,0-.952-5.9c-.346-1.1-.617-1.976-.159-2.793s1.472-1.211,3.065-1.608a4.5,4.5,0,0,0,2.242-1.056c1.224-1.08,1.888-1,8.9,1.065,6.352,1.865,7.056.338,8.336-2.44a13.439,13.439,0,0,1,3.337-4.9c4.966-4.344,6.653-6.709,7.223-10.114.327-1.978,2.278-3.832,4.343-5.8,2.041-1.941,4.356-4.141,3.843-5.676a9.4,9.4,0,0,0-1.7-2.8c-.858-1.094-1.669-2.13-1.479-3.446.144-1.009.865-1.947,2.266-2.949.6-.425.588-1.167.209-2.144l-1.845-.616a49.323,49.323,0,0,1-13.42-7.027,23.736,23.736,0,0,0-7.1-3.814,9.6,9.6,0,0,1-4.3-2.551,6.222,6.222,0,0,1-1.9-4.55c-.076-1.209-.1-1.66-1.5-2.126s-4.154,1.046-6.814,2.512c-3.476,1.915-7.071,3.893-10.048,3.152-4.649-1.161-3.975-6.531-3.483-10.453a26.513,26.513,0,0,0,.274-2.986,1.275,1.275,0,0,0-.068-.54,30.2,30.2,0,0,0-2.738,1.333,35.971,35.971,0,0,1-7.961,3.239,11.028,11.028,0,0,0-6.184,3.635c-1.152,1.233-2.242,2.392-4.831,2.028-1.008-.144-1.714-.222-2.305-.287-2.024-.22-2.782-.3-9.123-2.254l-1.122-.344c-3.744-1.148-3.892-1.194-5.672-2.438-.407-.283-.913-.638-1.6-1.094a3.958,3.958,0,0,0-2.986-.64,8.074,8.074,0,0,0-.026,6.443c1.985,5.293-.527,11.687-.634,11.956l-1.78,6.552c.46,1.682,2.366,9.218.46,12.394a4.532,4.532,0,0,0-.514,3.372,13.335,13.335,0,0,1-.656,6.478,27.943,27.943,0,0,0-.847,3.289c-.719,3.437-1.3,4.979-7.478,5.492-4.174.355-4.812-1.74-5.287-3.263-.488-1.57-.9-2.932-5.7-2.414l-10.077,8.188H164.767l-8.835,7.657c-.1,2.7-1.17,6.766-4.679,6.766a12.662,12.662,0,0,0-4.631,1.263,19.886,19.886,0,0,1-7.911,1.873c-1.194,0-2.353-.126-2.747-1.037-.423-.978.4-1.849,1.344-2.856,1.494-1.59,1.817-2.207,1.377-2.647-.982-.982-4.211.958-6.957,3.233-.115.4-.261.845-.409,1.285a16.152,16.152,0,0,0-1.152,6.55,28.648,28.648,0,0,1-.019,3.8c-.1,1.869-.168,3.219.654,3.99a1.972,1.972,0,0,0,1.71.444c.42-.063.924-.155,1.475-.257,4.319-.8,5.372-.6,5.5-.283.823,2.08,5.611,4.734,7.77,3.851.416-.174,1.366.325,1.845,1.135.5.852.046,1.242-.1,1.368a8.865,8.865,0,0,1-2.5,1.207c-1.46.538-2.84,1.048-3.372,2.226a2.514,2.514,0,0,0-.007,1.963,2.083,2.083,0,0,0,1.141,1.313,3.362,3.362,0,0,0,2.718-.569c1.218-.619,2.006-.954,2.67-.37A12.585,12.585,0,0,0,152.076,295c1.438.751,3.067,1.6,3.287,2.729.144.743-.287,1.723-1.283,2.908-.666.795-1.379,1.575-2.083,2.346-2.745,3-5.341,5.84-5.014,9.1.205,2.026,1.527,3.9,4.043,5.712,4.943,3.574,6.84,8.014,8.515,11.93a27.547,27.547,0,0,0,3.2,6.093c4.124,5.358,15.7,10.488,16.2,10.706.878.383,3.424,2.045,5.884,3.653,5.733,3.745,8.556,5.511,9.674,5.511a2.884,2.884,0,0,1,1.1.385A11.6,11.6,0,0,1,205.182,350.723Z" transform="translate(-36.3 -17.471)"/>

      <path id="Tracé_295" data-name="Tracé 295" class="cls-2" d="M257.836,171.5c1.381,3.134-.14,6.761-1.483,9.963-.288.688-.568,1.355-.808,1.993-1.821,4.853-2.433,6.489-.606,12.579a36.054,36.054,0,0,1,1.921,12.806c0,1.4,1.423,2.448,2.8,3.461,1.207.889,2.348,1.73,2.52,2.912a2.246,2.246,0,0,1-.486,1.708,42.5,42.5,0,0,1-5.568,5.609c-.425,1.486-2.535,7.916-7.491,9.155a8.027,8.027,0,0,0-5.413,5.045c1.235,1,3.753,3.254,4.041,5.276l.664-.442c.412.619,3.991,6.149,2.6,9.635-1.13,2.819-2.274,9.153,1.386,10.721,2.716,1.165,3.888,4.707,4.921,7.831.693,2.095,1.479,4.466,2.422,4.655,2.109.421,3.677,2.024,5.062,3.44a11.463,11.463,0,0,0,2.7,2.281c1.7.852,1.5,2.871,1.337,4.494-.218,2.193-.185,3.2,1.05,3.609,1.669.556,2.115.281,2.921-.22A6.135,6.135,0,0,1,276,286.928a11.932,11.932,0,0,0,4.429-1.076c1.546-.6,3.01-1.166,4.574-.778,1.407.351,2.533,1.414,3.834,2.646a17.259,17.259,0,0,0,5.084,3.673,3.069,3.069,0,0,1,1.852,1.786c.458,1.351-.324,2.745-1.015,3.975a5.556,5.556,0,0,0-.727,1.607c-.006-.011.113.052.353.1,4.733.745,12.155,1.3,13.669.165a19.758,19.758,0,0,0,1.86-1.649c1.363-1.318,2.906-2.817,4.851-1.516A17.042,17.042,0,0,0,320,297.49a14.026,14.026,0,0,0,1.253-5.071,51.168,51.168,0,0,1,.873-5.395c1.172-5.278,7.973-4.563,12.468-4.084,1.141.12,2.124.226,2.856.226,1.424,0,3.054-1.263,4.058-3.139.825-1.542,1.307-3.784.19-5.457-1.9-2.847,1.087-5.034,3.267-6.629.88-.645,2.522-1.847,2.32-2.25A18.01,18.01,0,0,0,345.243,263c-2.353-2.784-5.576-6.6-5.576-10.894,0-4.459,3.777-7.434,7.428-10.308a47.522,47.522,0,0,0,4.13-3.513c2.361-2.363,1.346-3.779-.651-6.08a11.085,11.085,0,0,1-2.061-2.956c-.717-1.79.329-3.226,1.252-4.494,1.178-1.614,2.193-3.01.7-5.393-.913-1.462-1.178-2.525-.86-3.45.435-1.259,1.8-1.751,3.37-2.322a13.121,13.121,0,0,0,5.145-2.9c4.193-4.193,8.789-17.012,8.835-17.141l.091-.187,6.241-9.805.93-9.767,2.2-1.412-.512-.006a3.641,3.641,0,0,1,2.335-2.309c2.37-.961,4-3.11,3.786-5-.078-.7-.556-2.361-3.318-2.792-2.851-.455-3.415-2.276-3.525-3.015L377,157h2.392l-.7-1.331c-1.669-3.183-5.825-10.586-8.389-10.586H358.594l-3.954,6.225-1.411,2.884-2.429-6.445c.85-1.56,3.492-6.816,2.1-9.5a3.024,3.024,0,0,0-2.684-1.586c-1.381-.085-3.176-.037-5.073.011-4.27.116-11.432.3-11.615-1.865-.015-.161-1.411-16.1-8.034-16.993a67.858,67.858,0,0,0-12.421-.006l-.808.076v.826a10.38,10.38,0,0,1-.6,3.953,2.534,2.534,0,0,1-.46-.479,55.655,55.655,0,0,0-3.718-4.433l-.379-.37-.5.155a4.88,4.88,0,0,1-3.531-.275,3.116,3.116,0,0,1-1.263-2.383,72.22,72.22,0,0,1-.651-8.3l-.9-2.893c.562-.906,1.719-3.091,1.107-4.84a2.989,2.989,0,0,0-2.189-1.889,6.086,6.086,0,0,0-5.38.793,17.151,17.151,0,0,1-3.681,1.566,91.886,91.886,0,0,1-18.589,2.664c-3.7,0-14.021.863-16.435,2.906-2.008,1.7-6.822,6.92-7.025,7.142l-.248.266.688,43.234,1.814,1.457-2.18-.519-7.9,7.371a87.784,87.784,0,0,1,12.249,3.376C255.246,168.2,257,169.6,257.836,171.5Zm18.458,52.141a6.161,6.161,0,0,1,3.344,2.723c.693,1.015.8,1.174,2.22.462.453-.226.887-.453,1.307-.671,3.15-1.64,5.871-3.052,9.09-.479a16.178,16.178,0,0,1,2.9,3.03c.773,1,.972,1.187,1.486,1.159,4.7.1,13.9.222,15.62.006,1.174-.364,12.876-3.786,16.269-1.756,1.817,1.091,1.871,2.849,1.915,4.4.056,1.814.107,3.525,2.488,5.014,4.921,3.076,9.905,5.578,9.957,5.6l-.828,1.653c-.05-.024-5.114-2.564-10.107-5.687-3.22-2.013-3.3-4.622-3.357-6.526-.044-1.512-.111-2.326-1.019-2.871-2.034-1.22-10.24.564-14.937,1.974-2.437.316-15.411.048-15.962.037-1.481.092-2.209-.865-2.989-1.878a14.356,14.356,0,0,0-2.586-2.712c-2.181-1.749-3.838-1.017-7.08.673-.427.224-.873.455-1.335.686-2.644,1.322-3.636.3-4.572-1.072a4.382,4.382,0,0,0-2.4-2.013c-2.864-.956-9.63.59-11.994,1.266l-.255.035a18.99,18.99,0,0,1-7.957-1.989l.863-1.634a17.439,17.439,0,0,0,6.968,1.775C264.493,224.524,272.517,222.381,276.294,223.64Z" transform="translate(57.176 -96.651)"/>

      <path id="Tracé_296" data-name="Tracé 296" class="cls-2" d="M247.417,231.01a2.95,2.95,0,0,1-1.159,3.333c-.922.66-1.446,1.25-1.512,1.706-.076.534.471,1.233,1.106,2.043a11.141,11.141,0,0,1,2,3.359c.884,2.647-1.764,5.165-4.322,7.6-1.755,1.668-3.566,3.391-3.794,4.759-.653,3.908-2.481,6.526-7.829,11.2a11.535,11.535,0,0,0-2.873,4.276c-1.651,3.583-3.185,5.6-10.538,3.44-6.6-1.943-6.753-1.81-7.158-1.453a6.2,6.2,0,0,1-3.017,1.462c-1.618.4-1.865.654-1.9.721a4.6,4.6,0,0,0,.311,1.338,19.842,19.842,0,0,1,1.037,6.452c0,6.263-.5,6.923-2.849,9-.5.442-1.1.971-1.812,1.682-1.026,1.028-1.337,3.174-.871,6.043.8,4.929,3.365,9.521,4.394,10.035a3.7,3.7,0,0,0,2.034.185c1.834-.152,4.13-.336,6.513,3.956.279.5.525.963.747,1.381,1.888,3.533,1.889,3.535,11.015,2.087l1.081-.172c2.912-.458,4.716-.238,5.851.7,1.326,1.107,1.368,2.915,1.414,4.829.076,3.187.163,6.8,5.243,9.622,4.019,2.235,5.816,3.81,6.2,5.443.322,1.377-.423,2.462-1.146,3.513a6,6,0,0,0-1.446,4.3c.564,5.646,14.891,14.216,17.892,14.216,1.409,0,2.488.934,3.633,1.923,2.006,1.732,4.08,3.522,8.5,1.311,3.352-1.677,3.457-2.409,3.5-2.684.2-1.422,1.248-1.516,4.356-1.8a71.631,71.631,0,0,1,7.774-.079c6,.144,12.8.3,20.282-1.771,1.936-.538,3.727-.928,5.444-1.261l.333-.5a2.016,2.016,0,0,1,.394.353c2.189-.4,4.224-.7,6.112-.961,5.093-.714,9.491-1.327,14.516-3.84a4.54,4.54,0,0,0,2.585-2.494c.482-1.581-.625-3.535-1.6-5.258s-1.817-3.209-1.331-4.55a2.642,2.642,0,0,1,1.69-1.533c1.266-.475,2.218-.791,2.96-1.039,2.156-.719,2.285-.762,3.522-2.413,1.823-2.429,4.137-2.385,8-2.291.832.018,1.751.041,2.775.041.834,0,1.562,0,2.07-.018a9.708,9.708,0,0,1-1.1-3.318c-.579-4.038.357-5.284,1.438-6.725.192-.253.39-.518.59-.815.867-1.3-.734-3.488-3.089-6.433-1.762-2.205-.791-5.2-.011-7.613.366-1.137.871-2.692.59-3.113a13.591,13.591,0,0,0-1.616-1.721c-1.984-1.917-4.7-4.54-4.171-7.722.165-.987.372-1.847.555-2.612.549-2.283.688-3.124-.3-4.108-1.989-1.989-1.876-5.89.4-13.46,1.6-5.352-.608-6.358-7.178-9.34l-.473-.214c-.525-.238-2.126-.967-2.159-2.326-.035-1.614,2.048-2.681,4.686-4.032,3.289-1.684,5.947-3.2,5.182-4.731a2.973,2.973,0,0,1-.229-2.429c.573-1.54,2.439-2.32,4.418-3.146,1.708-.712,3.644-1.521,4.008-2.681a2.925,2.925,0,0,0-.625-2.32,18.489,18.489,0,0,0-5.043-5.394c-1.159-.863-2.165-1.645-1.754-3.171a17.174,17.174,0,0,1-5.478-1.823c-.6-.4-.98-.2-2.54,1.307a21.3,21.3,0,0,1-2.035,1.8c-1.032.773-3.2,1.026-5.589,1.028a68.215,68.215,0,0,1-9.534-.854,2.211,2.211,0,0,1-1.7-1.168c-.453-1.017.161-2.107.81-3.263.477-.849,1.072-1.9.876-2.475a1.375,1.375,0,0,0-.83-.68A19.011,19.011,0,0,1,320,221.634a8.314,8.314,0,0,0-3.013-2.2c-1-.244-2.082.174-3.457.708a13.594,13.594,0,0,1-5.1,1.2,4.379,4.379,0,0,0-2.708.8c-1.165.723-2.169,1.176-4.483.4-2.764-.923-2.5-3.6-2.3-5.546.144-1.435.2-2.394-.324-2.657a12.855,12.855,0,0,1-3.191-2.644c-1.255-1.285-2.553-2.61-4.1-2.921-1.995-.4-2.836-2.941-3.812-5.886-.911-2.755-1.945-5.877-3.9-6.713-4.772-2.045-4.034-8.957-2.376-13.107.736-1.839-.764-5.1-1.845-6.979a3.2,3.2,0,0,1-2.089,1.322c-3.721.93-6.679,7.134-7.506,9.447l-.163.457-10.114,2.666h-9.571l-5.077,6.766,3.657,11.122c0,.333-.07,8.156-6.191,10.878-.592.263-.732.553-.788.747-.344,1.207,1.316,3.635,2.78,5.777a32.793,32.793,0,0,1,2.422,3.914l1.144.383Z" transform="translate(24.747 -29.221)"/>

      <path id="Tracé_297" data-name="Tracé 297" class="cls-2" d="M176.49,238.656a22.527,22.527,0,0,1,2.836,1.168,10.223,10.223,0,0,0,5.537,1.118,14.569,14.569,0,0,0,5.036-1.133c.712-.257,1.433-.507,2.163-.693.122-.192.213-.311.231-.335l.266.211a5.891,5.891,0,0,1,4.733.852c.7.468,1.216.826,1.631,1.117,1.544,1.08,1.544,1.08,5.156,2.185l1.124.346c6.173,1.9,6.883,1.976,8.779,2.183.608.067,1.333.146,2.368.294,1.634.233,2.165-.333,3.219-1.46a12.777,12.777,0,0,1,7.086-4.165,34.419,34.419,0,0,0,7.557-3.087c2.226-1.15,3.562-1.845,4.629-1.2a2.311,2.311,0,0,1,.876,2.047,27.257,27.257,0,0,1-.288,3.217c-.544,4.343-.736,7.72,2.1,8.428,2.274.562,5.692-1.316,8.707-2.978,3.281-1.808,6.112-3.37,8.291-2.646a3.544,3.544,0,0,1,2.76,3.764,4.4,4.4,0,0,0,1.364,3.357,7.794,7.794,0,0,0,3.6,2.111,25.723,25.723,0,0,1,7.582,4.065,48.485,48.485,0,0,0,12.891,6.761l.018.006c-.392-.621-.834-1.283-1.322-2-1.858-2.718-3.614-5.284-3.036-7.325a3.024,3.024,0,0,1,1.815-1.932c4.638-2.061,5.054-8.057,5.091-9.049l-3.864-11.593,6.212-8.282h10.375l8.831-2.355c.751-1.9,3.829-8.961,8.624-10.159.281-.07.947-.272,1.015-.608.185-.917-1.843-3.146-3.854-4.655l-.49-.368.148-.6a9.978,9.978,0,0,1,6.944-6.942c4.428-1.107,6.208-8.038,6.225-8.108l.074-.292.231-.194a43.093,43.093,0,0,0,5.5-5.489.493.493,0,0,0,.139-.329c-.061-.42-1.019-1.124-1.788-1.692-1.582-1.165-3.551-2.616-3.551-4.949A34.551,34.551,0,0,0,328.208,165c-1.915-6.382-1.368-8.386.647-13.76.246-.658.536-1.348.834-2.056,1.2-2.858,2.557-6.1,1.5-8.5-.623-1.409-2.022-2.487-4.283-3.294a86.172,86.172,0,0,0-13.307-3.548l-2.222,2.072c-.135.091-13.492,9.036-18.933,10.663-.8.238-2.438.5-4.516.837-12.266,1.974-40.987,6.6-38.054,27.828.07.355.8,3.172,6.777,5.041l-3.085,1.159-.285.174a28.253,28.253,0,0,1-9.081,5.369c-2.464.76-6.343-.174-10.451-1.165-3.61-.867-7.341-1.771-10.628-1.644-4.559.165-10.961-1.141-15.2-2.006a33.5,33.5,0,0,0-4.594-.786h-4.956l-6.189,2.548c-.423-3.05-1.908-10.948-6.182-13.993-.867-.616-1.886-1.549-1.821-2.486.065-.971,1.259-1.793,1.712-2.03l.311-.163,1.958-5.357-1.015-.214c-3.524-.741-15.152-2.9-16.821.481-.261.529-.523.61-.608.638-.7.214-1.993-.521-3.134-1.176a12.366,12.366,0,0,0-2.675-1.27c-2.409-.671-9.282-3.159-9.353-3.185l-.3-.052c-.183,0-1.8.035-2.3,1.268-.544,1.337.693,2.814,1.671,3.812,3.466,3.513,3.524,5.1,2.32,7.537-1.566,3.193-2.638,5.979-1.033,10.323,1.337,3.631,5.8,6.755,7.325,7.737-.2,1.836-.616,7.4,1.159,10.6.449.8.947,1.594,1.455,2.407,1.73,2.769,3.52,5.633,3.886,9.349.464,4.709-2.339,10.038-2.366,10.092l-.165.309.083.342c.211.863,2.139,8.489,4.862,10.155,1.405.865,2.969,3.494,2.584,4.9a.992.992,0,0,1-.113.209l.316.044C173.917,234.345,173.52,237.663,176.49,238.656Z" transform="translate(-17.864 -65.089)"/>

      <path id="Tracé_298" data-name="Tracé 298" class="cls-3" d="M183.051,272.978c1.841,1.841-.15,3.956-1.338,5.221-.207.22-.475.5-.677.747.179.017.416.031.734.031a18.092,18.092,0,0,0,7.215-1.738,14.17,14.17,0,0,1,5.326-1.4c2.749,0,2.838-5.295,2.838-5.348l0-.42,9.985-8.656h14.438l9.987-8.114.268-.031c6.079-.712,7.223,1.331,7.949,3.673.44,1.412.688,2.193,3.368,1.969,5.067-.423,5.211-1.117,5.822-4.03a29.684,29.684,0,0,1,.9-3.494,11.582,11.582,0,0,0,.571-5.687,6.278,6.278,0,0,1,.767-4.529c1.372-2.289-.057-8.85-.725-11.186l-.07-.248,1.949-7.147c.057-.159,2.385-6.106.654-10.719a10.39,10.39,0,0,1-.431-6.491c-.187.067-.373.131-.569.2a16.256,16.256,0,0,1-5.661,1.242,11.968,11.968,0,0,1-6.332-1.3,21.275,21.275,0,0,0-2.625-1.085,5.669,5.669,0,0,1-3.842-5.5c-.152.013-.288.035-.458.035h-16.52c-1.3-1.231-2.573-2.915-2.444-3.557.022-.113.231-.2.349-.237.9-.3,1.326-.775,1.265-1.418-.059-.616-.15-1.547-6.835-2.353l-.427-.05-.305.309c-1.96,2-4.215,3.76-4.827,3.775H199.09l-1.148.913a2.5,2.5,0,0,0-.194-1.385c-.667-1.392-2.586-1.9-5.873-1.553a24.759,24.759,0,0,1-7.626-.048c-1.557-.274-1.919.078-2.522,1.627-.773,1.969-2.638,2.891-4.442,3.782l-.584.29a9.741,9.741,0,0,0-3.361,3.518,51.235,51.235,0,0,1-5.03-4.344c-2.305-2.35-3.734-6.683-3.747-6.726l-.176-.314c-.035-.039-3.374-3.932-4.3-6.766-.111-.34-.214-.708-.324-1.091-.854-3.026-2.163-7.611-9.007-7.1a85.1,85.1,0,0,0-12.865,2.013c-2.022-.27-7.874-.871-9.5.78-1.68,1.693-.638,6-.283,7.267l-.292,2.024c-1.4-1.551-4.06-3.315-8.774-2.993-4.9.335-6.021,1.558-6.232,3.424a.47.47,0,0,0,0,.161c-.691.092-3.03-1.29-5.047-2.889l-.222-.176-.281-.013c-2.533-.122-10.933-.4-12.575,1.279-.867.884-3.57,1.231-5.176,1.253-.858-.292-4.686-1.394-6.367,1.442-.836,1.436-.294,2.984.229,4.479.649,1.852,1.261,3.6-.176,5.544A8.44,8.44,0,0,0,82,207.469a6.555,6.555,0,0,0,4.147,4.407c.773.226,1.263.547,1.377.908a1.236,1.236,0,0,1-.133.849H82.157l-.244.2c-.913.749-2.98,2.668-2.425,4.271.477,1.379,2.363,1.379,2.982,1.379,3.381,0,6.994,1.49,7.885,3.254a1.708,1.708,0,0,1-.222,1.889c-1.139,1.631-4.3,2.026-6.613,2.315-2.054.255-3.411.425-3.953,1.309a1.43,1.43,0,0,0-.126,1.226c.129.4.364,1.046.656,1.849.985,2.707,3.293,9.04,2.939,10.828-.349,1.86-.982,4.239-1.287,5.382-.1.381-.163.625-.172.677l.865.17.02.022.309.813c2.241-.834,4.955-1.216,6.032-.122.562.46,3.466,2.712,5.548,1.9a2.846,2.846,0,0,0,1.68-2.461,2.977,2.977,0,0,1,1.76-2.572c1.309-.431,3.089.294,4.659,1.893a5.423,5.423,0,0,1,1.61,3.5c.227,1.6.616,2.832,3.317,2.832.747,0,1.618-.057,2.592-.122,4.287-.283,10.149-.678,16.1,3.013,4.912,3.054,16.415,10.2,16.1,13.971-.266,3.368,1.3,6.343,2.936,7.007a1.9,1.9,0,0,0,2.287-.629l1.588-2.035-.107-.433a14.343,14.343,0,0,1-.525-5.265c1.608.457,7.985,4.228,11.761,6.583l.251.155.292-.026a84.067,84.067,0,0,1,13.026-.375C176.394,273.771,180.829,270.756,183.051,272.978Z" transform="translate(-79.358 -29.127)"/>

      <path id="Tracé_299" data-name="Tracé 299" class="cls-2" d="M453.2,292.506l-.307.054c-4.208.741-11.464,1.675-12.845-.4-.642-.967-3.98-1.076-6.025-.847a35.334,35.334,0,0,1-11.088-1.936c-2.8-1.05-3.588-3.8-4.283-6.225-.8-2.8-1.362-4.378-3.546-4.378-5.578,0-6.295,0-8.561,5.1a41.351,41.351,0,0,0-1.7,5.217c-1.571,5.561-3.526,12.482-9.648,13.5-2.242.377-3.542.157-4.222-.7-.895-1.133-.224-2.718.484-4.4.551-1.307,1.178-2.786.845-3.62a2.115,2.115,0,0,0-.118-.251,8.811,8.811,0,0,0-.991.682,11.056,11.056,0,0,1-8.147,2.657,14.021,14.021,0,0,1-3.305-.625,11.18,11.18,0,0,1-.8,2c-2.681,5.363-7.558,6.295-11.2,4.834-1.582-.63-3.9-.327-6.825.054a58.3,58.3,0,0,1-7.881.641c-2.418,0-3.825-.434-4.563-1.407-.887-1.174-.455-2.712-.035-4.2a10.925,10.925,0,0,0,.538-2.843c0-3.085,2.823-3.4,4.884-3.627,1.174-.131,2.389-.264,2.912-.788,1.2-1.205,3.453-4.672,3.2-7.227a2.575,2.575,0,0,0-1.179-2.01,19.941,19.941,0,0,0-4.9-1.847c-4.415-1.3-9.907-2.908-11.763-8.014-.412-1.133-.756-2.13-1.061-3.01-1.512-4.38-1.919-5.557-4.633-6.461-.56-.185-.78-.074-.852-.039-.518.266-.878,1.442-1.2,2.479-.536,1.74-1.142,3.712-2.958,4.437-3.122,1.261-6.339-2.474-7.55-4.089-2.3,1-9.34,3.605-12.36-.621l-3.134-4.389.346-.246c-.421.006-.893.007-1.475.007-1.039,0-1.974-.022-2.817-.041-3.884-.1-5.284-.037-6.476,1.551-1.536,2.047-2.034,2.263-4.418,3.056-.725.242-1.655.553-2.9,1.017-.235.089-.529.235-.6.433-.2.54.579,1.91,1.2,3.006,1.1,1.947,2.474,4.368,1.76,6.711a6.226,6.226,0,0,1-3.526,3.607c-5.295,2.649-9.831,3.283-15.085,4.017-1.862.261-3.758.529-5.773.893a16.08,16.08,0,0,1-.007,1.71c-.094,2.516-.2,5.37,3.237,6.746a34.539,34.539,0,0,1,9.1,5.465,29.6,29.6,0,0,0,2.945,2.126c2.429,1.459,4.2,4.239,4.113,6.467a2.984,2.984,0,0,1-1.669,2.679c-.81.4-1.281.869-1.3,1.277-.022.568.719,1.357,1.986,2.119l.577.34c2.169,1.287,4.413,2.618,4.574,4.625.094,1.168-.527,2.291-1.9,3.435L279.368,330.3c.189,1.777,1.022,8.192,3.579,12.283,2.856,4.57,1.039,15.132-.863,19.13a4.438,4.438,0,0,1-1.741,2.167c-.564,1.167-2.56,4.413-8.4,7.6-5.936,3.239-7.1,6.332-7.312,7.2a1.933,1.933,0,0,0,.113,1.508,7.124,7.124,0,0,0,2.32,1.285c1.562.664,3.036,1.289,3.047,2.566.007,1.191-1.32,1.945-2.623,2.523-5.152,2.289-7.94,4.716-8.656,6.071a16.5,16.5,0,0,1,1.579,2.7c1.642,3.281,6.744,14.222,3.592,17.374a1.761,1.761,0,0,0-.5,1.79,6.132,6.132,0,0,0,3.276,3.577c.355.116.732-.07,1.57-.573a8.015,8.015,0,0,1,5.792-1.346c2.069.3,3.977-3.211,5.648-6.31,1.2-2.231,2.34-4.341,3.679-5.413.834-.666,1.841-1.645,2.908-2.679,3.041-2.954,6.489-6.3,9.584-6.3,4.4,0,7.2,6.822,7.2,9.7,0,1.9,1.549,8.016,6.3,9.8a1.238,1.238,0,0,0,.551.12c.218-.423-.331-2.843-.7-4.444-.856-3.76-1.825-8.023.479-9.944,2.072-1.727,4.487-1.631,6.611-1.557,2.246.085,4.191.155,5.87-1.522a10.792,10.792,0,0,0,2.331-3.549c.862-1.919,1.671-3.073,4.96-1.666,2.869,1.231,2.124,4.417,1.581,6.744-.312,1.335-.666,2.847-.251,3.44.055.079.226.322.928.41a3.407,3.407,0,0,0,3.592-1.357,4.544,4.544,0,0,1,4.574-1.777c4.84.691,8.513,1.379,11.737,3.954,1.777,1.423,2.172,3.9,2.557,6.291s.775,4.849,2.474,6.263c2.923,2.437,2.559,6.374,2.265,9.537a14.278,14.278,0,0,0-.07,3.535c.17.849.542.969,1.806,1.261a6.732,6.732,0,0,1,4.99,3.477c1.37,2.4.264,4.792-.4,6.221-.094.2-.207.446-.292.653a13.874,13.874,0,0,0,2.17-.416c2.655-.662,4.762-1.25,6.489-1.727,3.217-.895,5.16-1.435,6.9-1.435,2.422,0,7.36-.616,7.41-.621l.333-.041,8.759,5.677h6.7c4.287,0,14.834-1.235,14.941-1.248,3.087-.69,4.01-.161,5.261.756,1.111.815,2.792,2.048,9.317,2.376l.353.015.253.253c.052.054,5.328,5.26,9.783,4.147,3.485-.871,3.524-.947,4.145-2.226.22-.455.494-1.019.93-1.742.366-.61.686-1.1.958-1.525,1.078-1.666,1.244-1.921.81-4.087-.418-2.078-2.224-2.459-8.4-1.771-2.135.235-3.535-.165-4.278-1.229-1.261-1.812.033-4.762,1.466-7.63a5.288,5.288,0,0,1,4.241-2.936c1.22-.244,1.305-.312,1.305-1.041,0-.479-.048-.991-.094-1.516-.27-2.962-.64-7.018,6.439-8.787,5.515-1.379,5.31-3.927,5.049-7.153-.054-.669-.105-1.337-.105-1.984,0-2.712,1.059-3.091,2.934-3.526a17.737,17.737,0,0,0,5.668-2.283c1.812-1.087,3.148-1.961,4.211-2.658,2.686-1.76,3.8-2.49,6.3-2.49,3.232,0,7.576-1.331,9.184-5.084a1.9,1.9,0,0,0,.078-1.7c-.793-1.468-4.154-2.059-6.376-2.451-.431-.076-.832-.148-1.185-.218a2.22,2.22,0,0,1-1.984-1.827c-.377-2.333,2.858-5.559,6.1-7.408,2.773-1.579,6.711.873,9.876,2.843a17.137,17.137,0,0,0,3.448,1.86q.005-.055.006-.139v-.351l5.7-6.411,3.472,1.547c1.178-.895,3.217-1.1,4.925-1.076a4.559,4.559,0,0,0,3.252.645c1.875-.346,3.581-1.847,5.073-4.463,1.68-2.978,3.126-2.725,4.79-2.431,1.4.246,3.311.581,4.483-2.024a13.02,13.02,0,0,0,.839-7.8,5.643,5.643,0,0,1-.109-1.455,4.188,4.188,0,0,1,.168-.52c.442-1.155.336-1.812-1.263-4.544-1.362-2.305-3.821-4-5.616-5.23a11.013,11.013,0,0,1-2.043-1.59c-.51-.688-.985-4.812-1.133-8.24l-.037-.867h-4.831l-.372.083a1.768,1.768,0,0,1-1.723-.178c-.876-.678-2.152-3-1.1-10.9,1.841-.044,6.369-.4,8.778-2.78a5.214,5.214,0,0,0,1.594-3.847c0-5.966-5.973-10.551-7.153-11.4l-2.756-5.293-4.075-.351a1.492,1.492,0,0,1-.292-1.1c.139-.494.886-.956,2.047-1.27l.375-.1.183-.351a8.566,8.566,0,0,0,.414-6.382,8.928,8.928,0,0,0-5.032-4.9c.464-1.464.462-2.483-.009-3.034a1.284,1.284,0,0,0-1.337-.383c-1.2.314-16.413,4.256-19.09,4.949l-2.231-1.627-.314.02c-6.125.4-6.125,1.7-6.125,2.263a11.885,11.885,0,0,0,.614,2.573c.5,1.708,1.425,4.886,1.1,5.777-.608,1.629-1.113,2.653-3.662,3.226s-8.672,1.157-10.138,1.294c-.294-.235-.586-.571-.566-.782.017-.19.381-.645,1.638-1.137a44.786,44.786,0,0,0,7.1-3.448l.483-.305-.377-3.034,1.492-3.649a2.217,2.217,0,0,0,.588-1.675,3.645,3.645,0,0,0-2.172-2.644c-.738-.486-2.677-2.1-2.8-3.673,0-.046.007-.092.007-.137l-6.374,3.185Z" transform="translate(72.962 41.897)"/>
      
      <path id="Tracé_300" data-name="Tracé 300" class="cls-2" d="M512.372,244.962a32.247,32.247,0,0,0,2.307-11.59l5.337-5.113,2.352-4.056,4.049-2.405,3.3-10.094L532.4,210.2c.372-.2,2.22-1.292,1.967-2.878-.224-1.392-1.839-2.272-5.243-2.854a66.542,66.542,0,0,1-10.4-2.309l-.325-.122-3.514,1.444-1.516.189v-2.692l-7.073.828-3.141.86c-1.337-1.35-5.981-5.711-11.011-6.618-3.115-.551-3.984-.065-4.947.741-.547.457-1.113.93-3.466.93H473.707l-1.891-3.842-.307-.129c-2.7-1.133-6.141-2.4-7.221-2.035-1.226.4-2.461,2.472-2.808,3.095l-.335,1.915h-4.208l.277-3.788-2.44-2.845-.751-2.307-2.547-.664-.974-6.585-.386-.216c-2.542-1.422-6.966-3.806-8.029-3.806-.751,0-4.173-.224-5.746-.324l-3.1-.688-7.87-.7-3.3,2.008-2.963-.29-5.9-.952-2.677-4.112h-.477c-8.829,0-8.829,1.154-8.815,1.832a3.971,3.971,0,0,1-1.747.923l-4.625,1.764-4.734-7.077-1.956-.658-2.337-4.086-7.722-1.71-3.625-3.879-8.19-1.76c-.359-9.227-1.353-9.9-1.686-10.122a15.8,15.8,0,0,1-1.912-1.653v-4.855l.893-2.777c.612-.9,2.714-4.221,1.863-6.117a2.155,2.155,0,0,0-1.9-1.244,41.612,41.612,0,0,0-7.119,0l-.453.043-.229.4c-.806,1.392-3.429,6.051-3.429,7.522a56.934,56.934,0,0,1-1.174,6.358l-8.443,2.446-5.659-2.549-3.766-.037-3.806,2.446-.886,9.316-6.424,10.094c-.475,1.316-4.9,13.4-9.234,17.729a14.85,14.85,0,0,1-5.822,3.329c-1.037.373-2.108.762-2.254,1.185-.054.152-.089.634.68,1.867,2.152,3.442.46,5.766-.775,7.461-.875,1.2-1.351,1.917-1.034,2.718a9.758,9.758,0,0,0,1.745,2.433c1.8,2.069,4.256,4.9.56,8.6a48.559,48.559,0,0,1-4.293,3.657c-3.459,2.723-6.724,5.295-6.724,8.857,0,3.62,2.969,7.136,5.139,9.7a18.362,18.362,0,0,1,2.287,3.054c.9,1.8-1.022,3.206-2.88,4.568-2.585,1.893-3.6,2.936-2.821,4.112,1.333,2,1.3,4.747-.1,7.354a9.291,9.291,0,0,1-1.54,2.1l1.013-.677c.026.037,2.542,3.816,4.413,6.934a8.541,8.541,0,0,1,.995,4.106c.107,1.856.155,2.7,2.106,2.98a19.915,19.915,0,0,0,4.415,0c2.444-.187,4.751-.361,6.23,1.61.473.634,1.143,1.379,1.849,2.167,2.159,2.409,4.605,5.139,4.605,7.794a3.059,3.059,0,0,0,.95,2.385c1.573,1.477,5.137,2.052,10.61,1.71a19.681,19.681,0,0,1,9.133,1.5c2.487.945,3.415,1.3,5.881-1.784,1.044-1.307,1.9-2.477,2.636-3.487,2.74-3.757,4.392-6.027,8.576-3.635a15.463,15.463,0,0,0,5.916,1.444c2.063.218,3.553.375,4.1,1.477a2.148,2.148,0,0,1-.277,2.119c-.825,1.372-.348,1.854.906,2.906a5.543,5.543,0,0,1,1.656,1.886,29.819,29.819,0,0,1,2.586,11.037c.007,0,.769,5.215,8.339,9.874,3.28,2.019,6.267,2.721,8.883,2.082a7.97,7.97,0,0,0,4.64-3.267,1.712,1.712,0,0,1,.026-.8c.27-1.008,1.425-2.56,8.3-4.394,1.93-.514,3.106-1.183,3.494-1.985.42-.874-.094-2.048-.592-3.187-.636-1.455-1.6-3.653.684-4.794a3,3,0,0,1,1.7-.457c.708-.734,1.863-1.917,3.707-3.76,4.172-4.171,4.6-7.186,4.834-8.805.116-.821.22-1.531.915-1.851.826-.381,1.538.068,4.18,1.751,1.551.987,2.122.858,2.261.789.5-.233.682-1.636.813-2.66.2-1.5.379-2.912,1.473-3.457a2.412,2.412,0,0,1,2.313.288,21.865,21.865,0,0,1,3.993,3.067c1.854,1.688,3.074,2.81,5.452,2.464,4.529-.645,14.656-.024,16.727.666,1.239.414,2.132,1.677,3.163,3.139a18.255,18.255,0,0,0,3.392,3.914c1.059.847,3.722,1.444,6.3,2.023,4.781,1.072,9.724,2.181,9.724,5.6a44.623,44.623,0,0,1-1.74,10.3,68.3,68.3,0,0,0,8.129,5.18c3.625,1.812,3.7,8.454,3.6,10.861a7.38,7.38,0,0,0,4.8,1.6h.006l6.282.362.261-.205c.776-.608,4.648-3.758,4.648-6.115,0-.42-.015-.856-.028-1.289a10.125,10.125,0,0,1,.083-2.562,4.328,4.328,0,0,0,2.592-3.9c0-1.562-1.806-4.091-2.178-4.594l-2.045-2.677.91-3.7,1.616-11.53,2.085-2.488-1.383-7.032-.324-7.426,6.933-9.419Z" transform="translate(103.672 -68.451)"/>

      <path id="Tracé_301" data-name="Tracé 301" class="cls-2" d="M497.96,253.094a72.8,72.8,0,0,1-8.92-5.731l-.516-.386.185-.617c.019-.063,1.841-6.2,1.841-10.4,0-1.936-4.592-2.965-8.282-3.794-2.908-.653-5.655-1.27-7.047-2.383a20,20,0,0,1-3.746-4.291c-.81-1.148-1.575-2.231-2.241-2.453-1.647-.547-11.491-1.211-15.882-.588-3.241.455-5.04-1.185-6.953-2.926a20.2,20.2,0,0,0-3.668-2.83c-.442-.253-.6-.227-.6-.227a6.639,6.639,0,0,0-.434,2.028c-.209,1.61-.446,3.435-1.865,4.1-1.03.483-2.309.194-4.038-.9-.945-.6-1.749-1.115-2.246-1.383l-.026.185c-.244,1.7-.751,5.243-5.358,9.85-2.852,2.853-4.043,4.112-4.483,4.576-.222.231-.8.856-1.475.316l-.194-.153c-.288.272-.2.736.451,2.226.6,1.377,1.351,3.091.562,4.729-.642,1.329-2.172,2.3-4.681,2.969-5.65,1.507-6.75,2.684-6.951,3l.351.351-.372.619a9.894,9.894,0,0,1-6.034,4.5c-3.119.76-6.576-.015-10.292-2.3-8.441-5.193-9.186-11.1-9.214-11.345a28.632,28.632,0,0,0-2.435-10.386,4.21,4.21,0,0,0-1.155-1.222c-1.181-.993-2.969-2.494-1.3-5.272a1.1,1.1,0,0,0,.187-.427,16.61,16.61,0,0,0-2.62-.379,16.859,16.859,0,0,1-6.639-1.679c-2.657-1.518-3.287-.83-6.167,3.119-.749,1.028-1.619,2.22-2.684,3.553-3.154,3.943-5,3.494-7.983,2.357a17.919,17.919,0,0,0-8.36-1.385c-6.08.381-10-.342-11.989-2.207a4.911,4.911,0,0,1-1.534-3.733c0-1.948-2.292-4.505-4.135-6.559-.732-.821-1.425-1.594-1.95-2.292-.826-1.107-2.213-1.056-4.607-.876a21.765,21.765,0,0,1-4.818-.017c-3.45-.492-3.583-2.828-3.69-4.7a6.851,6.851,0,0,0-.734-3.259c-1.729-2.878-3.989-6.3-4.3-6.768a5.72,5.72,0,0,1-3.685,1.573c-.83,0-1.86-.109-3.048-.235-5.086-.536-9.72-.741-10.469,2.646a49.254,49.254,0,0,0-.843,5.215,14.546,14.546,0,0,1-1.777,6.348c-.564.937-.564.937.762,1.923a20.135,20.135,0,0,1,5.5,5.884,4.611,4.611,0,0,1,.828,3.867c-.621,1.98-2.878,2.923-5.062,3.832-1.455.608-3.1,1.3-3.394,2.085-.037.092-.142.375.15.958,1.643,3.293-2.59,5.459-5.994,7.2-1.32.677-3.531,1.806-3.681,2.359a3.239,3.239,0,0,0,1.076.671l.471.214c6.613,3,10.255,4.653,8.184,11.552-1.237,4.123-2.67,9.811-.86,11.623,1.766,1.765,1.335,3.566.788,5.846-.176.728-.372,1.547-.529,2.485-.372,2.224,1.849,4.367,3.631,6.09a14.1,14.1,0,0,1,1.869,2.024c.776,1.165.246,2.806-.37,4.707-.677,2.093-1.444,4.463-.3,5.89,2.392,2.991,4.868,6.084,3.183,8.613-.22.329-.44.621-.649.9-.937,1.25-1.557,2.074-1.087,5.352a8.185,8.185,0,0,0,1.015,2.917c.312.579.636,1.176.264,1.8a1.254,1.254,0,0,1-.935.6l2.629,3.681c2.6,3.646,10.669-.25,10.748-.288l.73-.364.453.678c.867,1.3,3.782,4.823,5.786,4.047,1-.4,1.444-1.856,1.876-3.267.447-1.453.911-2.958,2.121-3.581a2.883,2.883,0,0,1,2.281-.072c3.581,1.2,4.23,3.073,5.8,7.615.3.871.642,1.858,1.048,2.98,1.538,4.23,6.324,5.633,10.547,6.873a20.931,20.931,0,0,1,5.4,2.082,4.432,4.432,0,0,1,1.993,3.365c.336,3.392-2.422,7.406-3.733,8.717-.984.982-2.523,1.154-4.013,1.318-2.472.275-3.241.556-3.241,1.79a12.485,12.485,0,0,1-.606,3.344c-.311,1.1-.6,2.145-.272,2.585.192.251.845.675,3.089.675a57.1,57.1,0,0,0,7.641-.625c3.195-.42,5.718-.752,7.752.063,2.649,1.057,6.561.658,8.863-3.945.9-1.8.784-2.42.782-2.426l-.152-.686,1.239-.686.5.529c0,.007.61.612,3.553.88a9.156,9.156,0,0,0,6.873-2.294c.965-.723,1.719-1.294,2.625-1.043a2.208,2.208,0,0,1,1.309,1.405c.616,1.538-.166,3.39-.858,5.025-.311.734-.954,2.259-.738,2.533,0,.006.362.377,2.47.028,4.966-.828,6.668-6.86,8.173-12.185a42.534,42.534,0,0,1,1.791-5.465c2.755-6.193,4.492-6.193,10.251-6.193,3.681,0,4.553,3.039,5.322,5.718.632,2.2,1.228,4.28,3.156,5a34.08,34.08,0,0,0,10.336,1.821c.934-.107,6.175-.573,7.667,1.666.636.688,5.59.525,10.678-.346l7.578-8.12,8.781-4.389.137.274a4.826,4.826,0,0,0,1.555-3.542,3.036,3.036,0,0,0-.669-1.655c.8-1.3,2.816-4.359,4.98-5.829,1.706-1.167,10.626-8.652,10.626-10.514a3.425,3.425,0,0,0-.532-1.448c-.647-1.268-1.729-3.391-1.05-5.42.49-1.468,1.854-2.738,4.052-3.775,8.707-4.1,9.436-6.311,9.423-8.123.274-.895,4.182-4.947,7.648-8.186l.122-.14a51.237,51.237,0,0,0,4.74-8.271,13.312,13.312,0,0,1,1.989-2.963c1.318-1.655,2.564-3.217,1.985-4.644-.512-1.268-2.178-1.59-3.394-1.725l-.316-.033c.592-1.937,1.688-4.271,2.777-4.587l.632-.189a11.9,11.9,0,0,1,3.611-.7C500.324,256.991,499.7,253.963,497.96,253.094Z" transform="translate(89.399 -10.9)"/>

      <path id="Tracé_302" data-name="Tracé 302" class="cls-4" d="M319.439,137.592l-1-1.554-4.541,2.919,3.365.034Z" transform="translate(119.694 -63.224)"/>

      <path id="Tracé_303" data-name="Tracé 303" class="cls-4" d="M238.087,132.614l-.22,1.836c.028,0,1.028.128,2.7.431l1.679-1.568C239.782,132.825,238.226,132.631,238.087,132.614Z" transform="translate(55.168 -66.13)"/>

      <path id="Tracé_304" data-name="Tracé 304" class="cls-4" d="M316.352,328.659c-1.717.333-3.509.723-5.444,1.261-7.48,2.076-14.279,1.915-20.282,1.771a71.63,71.63,0,0,0-7.774.08c-3.108.283-4.154.377-4.356,1.8-.041.275-.146,1.008-3.5,2.684-4.417,2.211-6.491.422-8.5-1.311-1.144-.989-2.224-1.923-3.633-1.923-3,0-17.328-8.571-17.892-14.217a6,6,0,0,1,1.446-4.3c.723-1.05,1.468-2.135,1.146-3.513-.383-1.632-2.18-3.207-6.2-5.443-5.08-2.823-5.167-6.435-5.243-9.622-.046-1.913-.089-3.721-1.414-4.829-1.135-.943-2.939-1.163-5.851-.7l-1.081.172c-9.125,1.448-9.127,1.446-11.015-2.087-.222-.418-.468-.878-.747-1.381-2.383-4.293-4.679-4.108-6.513-3.956a3.7,3.7,0,0,1-2.034-.185c-1.03-.514-3.594-5.106-4.394-10.035-.466-2.869-.155-5.016.871-6.043.714-.712,1.311-1.241,1.812-1.682,2.352-2.08,2.849-2.74,2.849-9a19.842,19.842,0,0,0-1.037-6.452,4.6,4.6,0,0,1-.311-1.338c.037-.067.285-.316,1.9-.721a6.2,6.2,0,0,0,3.017-1.462c.4-.357.555-.49,7.158,1.453,7.352,2.161,8.887.142,10.538-3.44a11.535,11.535,0,0,1,2.873-4.276c5.348-4.677,7.177-7.295,7.829-11.2.227-1.368,2.039-3.091,3.794-4.759,2.559-2.435,5.206-4.953,4.322-7.6a11.141,11.141,0,0,0-2-3.359c-.634-.81-1.181-1.509-1.106-2.043.067-.457.59-1.046,1.512-1.706a2.95,2.95,0,0,0,1.159-3.333l-.107.322-1.917-.638c.379.978.386,1.719-.209,2.145-1.4,1-2.122,1.939-2.266,2.949-.19,1.316.621,2.352,1.479,3.446a9.4,9.4,0,0,1,1.7,2.8c.512,1.534-1.8,3.734-3.843,5.676-2.065,1.963-4.015,3.818-4.343,5.8-.569,3.405-2.257,5.77-7.223,10.114a13.438,13.438,0,0,0-3.337,4.9c-1.279,2.779-1.984,4.306-8.336,2.44-7.016-2.065-7.68-2.145-8.9-1.065a4.5,4.5,0,0,1-2.242,1.056c-1.594.4-2.6.789-3.065,1.608s-.187,1.69.159,2.793a17.922,17.922,0,0,1,.952,5.9c0,5.65-.253,5.873-2.224,7.618-.523.462-1.148,1.015-1.895,1.76-1.394,1.4-1.889,3.832-1.464,7.055l.294-.229,1.142,1.453-1.069.834c1.017,4.455,3.315,9.035,5.1,9.928a5.34,5.34,0,0,0,3.01.373c1.644-.131,2.943-.24,4.749,3.01.274.5.514.945.734,1.355,2.507,4.694,3.091,4.6,12.932,3.045l1.081-.172c2.242-.357,3.716-.255,4.378.3.682.569.712,1.841.751,3.452.08,3.317.187,7.859,6.193,11.2,3.281,1.821,5.064,3.252,5.3,4.248.129.553-.227,1.107-.869,2.041a7.814,7.814,0,0,0-1.762,5.535c.678,6.8,15.956,15.882,19.731,15.882.721,0,1.509.682,2.424,1.473,1.436,1.24,3.235,2.8,5.973,2.8a10.212,10.212,0,0,0,4.559-1.229c3.638-1.821,4.283-2.93,4.479-3.951a26.094,26.094,0,0,1,2.716-.346,70.076,70.076,0,0,1,7.561-.072c5.833.142,13.078.312,20.82-1.839,1.573-.436,3.028-.765,4.439-1.056-.013-.464-.057-.863-.181-.947Z" transform="translate(23.904 -4.159)"/>

      <path id="Tracé_305" data-name="Tracé 305" class="cls-4" d="M271.3,141.4c1.061,2.407-.3,5.646-1.5,8.5-.3.708-.588,1.4-.834,2.056-2.015,5.374-2.562,7.378-.647,13.76A34.551,34.551,0,0,1,270.164,178c0,2.333,1.969,3.784,3.551,4.949.769.568,1.727,1.272,1.788,1.692a.493.493,0,0,1-.139.329,43.1,43.1,0,0,1-5.5,5.489l-.231.194-.074.292c-.017.07-1.8,7-6.225,8.108a9.978,9.978,0,0,0-6.944,6.942l-.148.6.49.368c2.011,1.509,4.039,3.738,3.855,4.655-.068.336-.734.538-1.015.608-4.8,1.2-7.874,8.256-8.624,10.159l-8.831,2.355H231.746l-6.212,8.282,3.864,11.593c-.037.993-.453,6.988-5.091,9.049a3.024,3.024,0,0,0-1.815,1.932c-.579,2.041,1.178,4.607,3.036,7.325.488.714.93,1.375,1.322,2l2.625.874a32.79,32.79,0,0,0-2.422-3.914c-1.464-2.143-3.124-4.57-2.78-5.777.055-.194.2-.484.788-.747,6.121-2.721,6.191-10.545,6.191-10.878l-3.657-11.122,5.077-6.766h9.571l10.114-2.666.163-.457c.826-2.313,3.784-8.517,7.506-9.447a3.2,3.2,0,0,0,2.089-1.322c-.213-.37-.414-.7-.573-.945l.874-.582c-.288-2.022-2.806-4.28-4.041-5.276a8.027,8.027,0,0,1,5.413-5.045c4.956-1.239,7.066-7.668,7.491-9.155a42.5,42.5,0,0,0,5.568-5.609,2.246,2.246,0,0,0,.486-1.708c-.172-1.181-1.313-2.022-2.52-2.912-1.375-1.013-2.8-2.061-2.8-3.461a36.053,36.053,0,0,0-1.921-12.806c-1.827-6.09-1.215-7.726.606-12.579.24-.638.519-1.305.808-1.993,1.342-3.2,2.864-6.829,1.483-9.963-.837-1.9-2.59-3.3-5.354-4.289a87.786,87.786,0,0,0-12.249-3.376l-1.679,1.568a86.171,86.171,0,0,1,13.307,3.548C269.275,138.915,270.674,139.993,271.3,141.4Z" transform="translate(42.023 -65.809)"/>

      <path id="Tracé_306" data-name="Tracé 306" class="cls-4" d="M353.286,148.8l-6.241,9.805-.091.187c-.046.129-4.642,12.948-8.835,17.141a13.121,13.121,0,0,1-5.145,2.9c-1.575.571-2.936,1.063-3.37,2.322-.318.924-.054,1.987.86,3.45,1.49,2.383.475,3.779-.7,5.393-.922,1.268-1.969,2.7-1.252,4.494a11.085,11.085,0,0,0,2.061,2.956c2,2.3,3.012,3.718.651,6.08a47.521,47.521,0,0,1-4.13,3.513c-3.651,2.875-7.428,5.849-7.428,10.308,0,4.3,3.222,8.11,5.576,10.894a18.013,18.013,0,0,1,2.046,2.688c.2.4-1.44,1.6-2.32,2.25-2.18,1.6-5.163,3.782-3.267,6.629,1.117,1.673.634,3.916-.19,5.457-1,1.876-2.634,3.139-4.058,3.139-.732,0-1.716-.105-2.856-.226-4.494-.479-11.3-1.194-12.468,4.084a51.168,51.168,0,0,0-.873,5.394A14.025,14.025,0,0,1,300,262.723c.251.044.481.083.651.107l-.261,1.83c-.057-.007-.527-.079-1.176-.2-.41,1.525.6,2.307,1.754,3.171a18.489,18.489,0,0,1,5.043,5.395,2.925,2.925,0,0,1,.625,2.32c-.364,1.159-2.3,1.969-4.008,2.681-1.98.826-3.845,1.607-4.418,3.146a2.973,2.973,0,0,0,.229,2.429c.765,1.531-1.893,3.047-5.182,4.731-2.638,1.351-4.722,2.418-4.686,4.032.033,1.359,1.634,2.087,2.159,2.326l.473.214c6.57,2.982,8.783,3.988,7.178,9.34-2.274,7.57-2.387,11.471-.4,13.46.984.984.845,1.825.3,4.108-.183.765-.39,1.625-.555,2.612-.531,3.182,2.187,5.8,4.171,7.722a13.59,13.59,0,0,1,1.616,1.721c.281.421-.224,1.976-.59,3.113-.78,2.409-1.751,5.407.011,7.613,2.355,2.945,3.956,5.13,3.089,6.433-.2.3-.4.562-.59.815-1.081,1.442-2.017,2.688-1.438,6.726a9.709,9.709,0,0,0,1.1,3.318c-.508.018-1.237.018-2.071.018-1.024,0-1.943-.022-2.775-.041-3.862-.094-6.177-.139-8,2.291-1.237,1.651-1.366,1.693-3.522,2.413-.741.248-1.693.564-2.96,1.039a2.642,2.642,0,0,0-1.69,1.533c-.486,1.34.357,2.829,1.331,4.55s2.083,3.677,1.6,5.258a4.54,4.54,0,0,1-2.584,2.494c-5.025,2.512-9.423,3.126-14.516,3.84-1.888.264-3.923.556-6.112.961a2.907,2.907,0,0,1,.6,1.762c2.015-.364,3.912-.632,5.773-.893,5.254-.734,9.791-1.368,15.085-4.017a6.226,6.226,0,0,0,3.526-3.607c.714-2.342-.658-4.764-1.76-6.711-.623-1.1-1.4-2.466-1.2-3.006.072-.2.366-.344.6-.433,1.24-.464,2.17-.775,2.9-1.017,2.385-.793,2.882-1.009,4.418-3.056,1.192-1.588,2.592-1.647,6.476-1.551.843.018,1.778.041,2.817.041.582,0,1.054,0,1.475-.007l1.159-.83.507.708a1.254,1.254,0,0,0,.935-.6c.372-.621.048-1.218-.264-1.8a8.183,8.183,0,0,1-1.015-2.917c-.47-3.278.15-4.1,1.087-5.352.209-.281.429-.573.649-.9,1.684-2.529-.791-5.622-3.183-8.613-1.141-1.427-.373-3.8.3-5.89.616-1.9,1.146-3.542.37-4.707a14.1,14.1,0,0,0-1.869-2.024c-1.782-1.723-4-3.866-3.631-6.09.157-.937.353-1.756.529-2.485.547-2.279.978-4.08-.788-5.846-1.81-1.812-.377-7.5.86-11.623,2.07-6.9-1.571-8.552-8.184-11.552L291.5,293a3.236,3.236,0,0,1-1.076-.671c.15-.553,2.361-1.682,3.681-2.359,3.4-1.743,7.637-3.91,5.993-7.2-.292-.582-.187-.865-.15-.958.292-.789,1.939-1.477,3.394-2.085,2.183-.91,4.441-1.852,5.062-3.832a4.611,4.611,0,0,0-.828-3.867,20.136,20.136,0,0,0-5.5-5.884c-1.326-.985-1.326-.985-.762-1.923a14.547,14.547,0,0,0,1.777-6.348,49.245,49.245,0,0,1,.843-5.215c.749-3.387,5.383-3.182,10.469-2.646,1.189.126,2.218.235,3.049.235a5.72,5.72,0,0,0,3.684-1.573l-.063-.092.525-.349a9.293,9.293,0,0,0,1.54-2.1c1.4-2.607,1.433-5.356.1-7.354-.784-1.176.237-2.218,2.821-4.112,1.858-1.362,3.779-2.769,2.88-4.568a18.364,18.364,0,0,0-2.287-3.054c-2.17-2.566-5.139-6.082-5.139-9.7,0-3.562,3.265-6.134,6.724-8.857a48.561,48.561,0,0,0,4.293-3.657c3.7-3.694,1.235-6.53-.56-8.6a9.755,9.755,0,0,1-1.745-2.433c-.318-.8.159-1.518,1.033-2.718,1.235-1.7,2.926-4.019.775-7.461-.769-1.233-.734-1.716-.68-1.867.146-.423,1.216-.812,2.254-1.185a14.849,14.849,0,0,0,5.822-3.33c4.331-4.332,8.759-16.413,9.234-17.729l6.424-10.094.885-9.316,3.807-2.446-3.365-.035-2.2,1.412Z" transform="translate(77.179 -61.884)"/>

      <path id="Tracé_307" data-name="Tracé 307" class="cls-4" d="M184.8,411.927a18.386,18.386,0,0,0,.061,4.757l1.827-.3a15.694,15.694,0,0,1-.037-4.394A2.214,2.214,0,0,0,184.8,411.927Z" transform="translate(10.019 170.779)"/>

      <path id="Tracé_308" data-name="Tracé 308" class="cls-4" d="M325.542,389.039c-2.936,6.535-3.03,8.532-3.03,8.741l1.849.022c0-.078.122-1.973,3.052-8.419.061-.135.12-.235.179-.359C326.868,389.022,326.182,389.026,325.542,389.039Z" transform="translate(127.006 151.485)"/>

      <path id="Tracé_309" data-name="Tracé 309" class="cls-4" d="M386.777,434.6a8.793,8.793,0,0,0,6.04-4.014l6.746-4.293,4.862-7.478-1.862-11.791c1.618-1.631,5.337-5.677,4.94-8-.285-1.653-3.315-3.361-5.045-4.208l-.61-8.541-2.061-2.475h-1.974v-1.849h.2l-8.759-5.677-.333.041c-.05.006-4.988.621-7.41.621-1.745,0-3.688.54-6.9,1.435-1.727.477-3.834,1.065-6.489,1.727a13.871,13.871,0,0,1-2.17.416c.085-.207.2-.449.292-.653.662-1.429,1.767-3.821.4-6.221a6.732,6.732,0,0,0-4.99-3.477c-1.265-.292-1.636-.412-1.806-1.261a14.279,14.279,0,0,1,.07-3.535c.294-3.163.658-7.1-2.265-9.538-1.7-1.414-2.093-3.879-2.474-6.263s-.78-4.868-2.557-6.291c-3.224-2.575-6.9-3.263-11.737-3.954a4.544,4.544,0,0,0-4.574,1.777,3.407,3.407,0,0,1-3.592,1.357c-.7-.089-.873-.331-.928-.41-.414-.593-.061-2.106.251-3.44.544-2.327,1.289-5.513-1.581-6.744-3.289-1.407-4.1-.253-4.96,1.666a10.793,10.793,0,0,1-2.331,3.549c-1.679,1.677-3.623,1.607-5.87,1.521-2.124-.074-4.539-.17-6.611,1.557-2.3,1.921-1.335,6.184-.479,9.944.364,1.6.913,4.021.7,4.444a1.237,1.237,0,0,1-.551-.12c-4.749-1.78-6.3-7.892-6.3-9.8,0-2.88-2.793-9.7-7.2-9.7-3.095,0-6.543,3.346-9.584,6.3-1.067,1.033-2.074,2.013-2.908,2.679-1.339,1.072-2.477,3.182-3.679,5.413-1.671,3.1-3.579,6.613-5.648,6.31a8.016,8.016,0,0,0-5.792,1.346c-.837.5-1.215.69-1.57.573a6.133,6.133,0,0,1-3.276-3.577,1.761,1.761,0,0,1,.5-1.79c3.152-3.152-1.95-14.093-3.592-17.374a16.5,16.5,0,0,0-1.579-2.7,1.444,1.444,0,0,0-.2.608h-1.741a9.242,9.242,0,0,1,1.873,2.921c3.1,6.2,5.529,13.643,3.936,15.239a3.59,3.59,0,0,0-.995,3.522,7.988,7.988,0,0,0,4.489,4.907,3.589,3.589,0,0,0,3.1-.74,6.237,6.237,0,0,1,4.585-1.1c3.359.475,5.576-3.635,7.533-7.264,1.063-1.971,2.161-4.008,3.207-4.845.9-.721,1.941-1.73,3.041-2.8,2.651-2.573,5.949-5.777,8.3-5.777,3.034,0,5.348,5.576,5.348,7.853,0,3.037,2.2,9.539,7.5,11.525a2.2,2.2,0,0,0,2.35-.179c1.159-1.009.654-3.222-.043-6.284-.662-2.921-1.571-6.918-.137-8.116,1.527-1.268,3.305-1.205,5.356-1.128,2.346.094,5,.19,7.247-2.061a12.492,12.492,0,0,0,2.708-4.1c.677-1.5.688-1.518,2.546-.723,1.35.579,1.093,2.132.512,4.622-.44,1.876-.854,3.649.03,4.919a3,3,0,0,0,2.217,1.187,5.158,5.158,0,0,0,5.186-1.947,2.752,2.752,0,0,1,2.95-1.191c4.546.647,7.985,1.283,10.841,3.568,1.218.976,1.544,3,1.886,5.139.414,2.594.886,5.533,3.115,7.391,2.178,1.814,1.876,5.073,1.608,7.948a15.137,15.137,0,0,0-.041,4.067c.412,2.056,1.958,2.414,3.2,2.7a4.948,4.948,0,0,1,3.8,2.592c.9,1.571.14,3.209-.47,4.527-.468,1.011-.908,1.965-.279,2.725.666.8,2.013.651,4.283.083,2.675-.669,4.8-1.259,6.535-1.74,3.065-.852,4.916-1.368,6.411-1.368,2.187,0,6.128-.453,7.306-.593l8.378,5.385,2.853,3.426.647,9.023.492.229c2.224,1.039,4.365,2.509,4.494,3.082.181,1.046-2.311,4.313-4.751,6.709l-.34.333,1.9,12.041-4.093,6.43-6.726,4.28-.261.248a7.025,7.025,0,0,1-5.04,3.424c-1.91.429-3.884.874-5.7,4.877-.067.146-.124.279-.189.422.64-.013,1.326-.017,2.05-.015C383.893,435.271,385.115,434.97,386.777,434.6Z" transform="translate(72.069 102.434)"/>

      <path id="Tracé_310" data-name="Tracé 310" class="cls-4" d="M188.69,479.322c2.915-1.459,5.37-4.222,7.535-6.659.749-.841,1.451-1.634,2.111-2.294a10.214,10.214,0,0,1,1.843-1.436c1.509-.978,2.932-1.9,5.243-6.986a30.42,30.42,0,0,1,2.925-4.984c1.843-2.668,3.061-4.428.07-7.914a10.575,10.575,0,0,1-2.3-4.287c-.542-1.721-1.054-3.348-4.178-5.3a29.7,29.7,0,0,0-5.261-2.409c-4.01-1.514-5.585-2.368-4.993-4.735a39.774,39.774,0,0,1,2.487-6.332c1.566-3.439,3.185-7,3.185-10.2a8.108,8.108,0,0,1,2.732-6.245c1.852-1.566,4.437-2.126,7.48-1.621,4.248.708,8.97-1,13.139-2.512,3.427-1.241,6.661-2.416,8.737-1.893a5.761,5.761,0,0,0,5.03-.884c1.584-.941,3.381-2.006,8.818-.987,3.5.656,5.021.632,5.812-.089a2.167,2.167,0,0,0,.5-1.972c-.091-.941-.164-1.686,2.248-2.344,4.657-1.27,7.295-2.305,7.892-4.135.451-1.387-.434-2.721-1.141-3.6a23.387,23.387,0,0,1-3.47-7.367l4.163-5.2,5.637,4.228.765-9.36c-.275-2.762,0-6.1.847-6.663A16.273,16.273,0,0,1,268.8,364a26.029,26.029,0,0,0,6.6-3.938,6,6,0,0,0,2.365-4.289c.22-1.381.409-2.57,3.2-4.431,6.056-4.038,6.056-6.384,6.056-12.055a11.746,11.746,0,0,0-2.1-6.055c-.49-.828-1.1-1.86-.945-2.194.039-.083.329-.521,2.285-.876,4.343-.788,5.714-.3,7.45.327a16.573,16.573,0,0,0,3.542.934c1.5.213,2.266,2.279,3.01,4.278s1.442,3.871,2.991,4.54a3.276,3.276,0,0,0,2.64-.1l.638-.292-.079-.691c-.015-.116-.266-2.906,6.132-3.973,4.13-.69,5.92-.651,7.084.268a3.585,3.585,0,0,1,.651-1.8c-1.521-.906-3.782-1-8.038-.288-3.372.56-5.683,1.69-6.87,3.354a4.261,4.261,0,0,0-.778,1.887,1.076,1.076,0,0,1-.645-.055c-.826-.355-1.418-1.948-1.993-3.488-.889-2.388-1.9-5.1-4.479-5.465a14.62,14.62,0,0,1-3.18-.843c-1.838-.658-3.574-1.279-8.4-.4-2.08.379-3.2.972-3.636,1.928-.556,1.213.181,2.459,1.033,3.9a10.111,10.111,0,0,1,1.843,5.115c0,5.541,0,7.029-5.232,10.517-3.465,2.309-3.749,4.1-4,5.679a4.231,4.231,0,0,1-1.725,3.159,24.372,24.372,0,0,1-6.173,3.67,17.246,17.246,0,0,0-2.527,1.289c-2.231,1.486-1.775,7.247-1.662,8.216l-.49,5.86-4.394-3.3-5.862,7.326.111.444a25.8,25.8,0,0,0,3.938,8.508c.677.847.956,1.477.825,1.875-.4,1.229-4.757,2.418-6.617,2.925-3.917,1.069-3.714,3.176-3.6,4.307.017.179.044.436.105.414-.131.081-.836.288-4.241-.348-6.127-1.155-8.332.159-10.1,1.213a3.929,3.929,0,0,1-3.638.678c-2.621-.651-5.955.553-9.813,1.95-3.958,1.431-8.441,3.058-12.207,2.425-4.539-.756-7.389.69-8.979,2.037a9.941,9.941,0,0,0-3.385,7.654c0,2.8-1.534,6.171-3.019,9.43a41.036,41.036,0,0,0-2.6,6.652c-1.048,4.2,2.6,5.577,6.134,6.912a27.748,27.748,0,0,1,4.934,2.246c2.546,1.592,2.9,2.721,3.394,4.289a12.431,12.431,0,0,0,2.664,4.934c2.061,2.407,1.586,3.1-.187,5.661a31.936,31.936,0,0,0-3.087,5.271c-2.089,4.592-3.237,5.339-4.566,6.2a11.78,11.78,0,0,0-2.144,1.679c-.682.682-1.411,1.5-2.185,2.374-2.056,2.313-4.385,4.934-6.981,6.232-2.046,1.024-2.847,3.287-3.124,5.422a2.214,2.214,0,0,1,1.851.063C186.826,481.517,187.416,479.958,188.69,479.322Z" transform="translate(10.078 99.616)"/>

      <path id="Tracé_311" data-name="Tracé 311" class="cls-4" d="M164.323,188.2l-1.514-.207a5.94,5.94,0,0,0-.039.954A1.794,1.794,0,0,0,164.323,188.2Z" transform="translate(-8.57 -19.13)"/>

      <path id="Tracé_312" data-name="Tracé 312" class="cls-4" d="M166.611,194.354a21.277,21.277,0,0,1,2.625,1.085,11.968,11.968,0,0,0,6.332,1.3,16.256,16.256,0,0,0,5.661-1.242c.2-.072.383-.137.569-.2a8.187,8.187,0,0,1,.969-2.23c-.73.187-1.451.436-2.163.693a14.57,14.57,0,0,1-5.036,1.133,10.223,10.223,0,0,1-5.537-1.118,22.527,22.527,0,0,0-2.836-1.168c-2.971-.993-2.573-4.311-2.557-4.452l-.316-.044a1.794,1.794,0,0,1-1.553.747A5.669,5.669,0,0,0,166.611,194.354Z" transform="translate(-8.568 -19.034)"/>

      <path id="Tracé_313" data-name="Tracé 313" class="cls-4" d="M268.013,217.372a48.484,48.484,0,0,1-12.891-6.761,25.724,25.724,0,0,0-7.582-4.065,7.794,7.794,0,0,1-3.6-2.111,4.4,4.4,0,0,1-1.364-3.357,3.544,3.544,0,0,0-2.76-3.764c-2.18-.725-5.01.837-8.291,2.646-3.015,1.662-6.433,3.54-8.707,2.978-2.832-.708-2.64-4.086-2.1-8.428a27.257,27.257,0,0,0,.288-3.217,2.311,2.311,0,0,0-.876-2.047c-1.067-.647-2.4.048-4.629,1.2a34.421,34.421,0,0,1-7.557,3.087,12.777,12.777,0,0,0-7.086,4.165c-1.054,1.128-1.584,1.693-3.219,1.46-1.035-.148-1.76-.227-2.368-.294-1.9-.207-2.607-.285-8.779-2.183l-1.124-.346c-3.612-1.106-3.612-1.106-5.156-2.185-.414-.29-.93-.649-1.631-1.117a5.891,5.891,0,0,0-4.733-.852l1.179.945a5.2,5.2,0,0,0-.458.806,3.959,3.959,0,0,1,2.986.64c.686.457,1.192.812,1.6,1.094,1.78,1.244,1.928,1.29,5.672,2.438l1.122.344c6.341,1.95,7.1,2.034,9.123,2.254.592.065,1.3.142,2.305.287,2.588.364,3.679-.795,4.831-2.028a11.028,11.028,0,0,1,6.184-3.635,35.974,35.974,0,0,0,7.96-3.239,30.2,30.2,0,0,1,2.738-1.333,1.275,1.275,0,0,1,.068.54,26.51,26.51,0,0,1-.274,2.986c-.492,3.921-1.166,9.292,3.483,10.453,2.976.741,6.572-1.237,10.048-3.152,2.66-1.466,5.415-2.969,6.814-2.512s1.423.917,1.5,2.126a6.222,6.222,0,0,0,1.9,4.55,9.6,9.6,0,0,0,4.3,2.551,23.736,23.736,0,0,1,7.1,3.814,49.323,49.323,0,0,0,13.42,7.027l1.845.616a14.216,14.216,0,0,0-1.268-2.372Z" transform="translate(0.841 -18.277)"/>

      <path id="Tracé_314" data-name="Tracé 314" class="cls-4" d="M227.361,205.2l-1.144-.383a8.306,8.306,0,0,1,.667,1.814Z" transform="translate(45.28 -4.847)"/>

      <path id="Tracé_315" data-name="Tracé 315" class="cls-4" d="M228.09,207.037a8.307,8.307,0,0,0-.667-1.814l-2.625-.874a14.216,14.216,0,0,1,1.268,2.372l1.917.638Z" transform="translate(44.075 -5.248)"/>

      <path id="Tracé_316" data-name="Tracé 316" class="cls-4" d="M131.32,230.205c-.95.789-1.692,1.49-2.05,1.838l1.288,1.325c.569-.555,1.205-1.122,1.869-1.673a3.292,3.292,0,0,0,.185-1.213A4.284,4.284,0,0,0,131.32,230.205Z" transform="translate(-36.999 16.696)"/>

      <path id="Tracé_317" data-name="Tracé 317" class="cls-4" d="M173.817,190.605c-.018.024-.109.142-.231.335.165-.043.329-.089.5-.124Z" transform="translate(0.612 -16.913)"/>

      <path id="Tracé_318" data-name="Tracé 318" class="cls-4" d="M138.443,261.17c.44.44.116,1.057-1.377,2.647-.948,1.008-1.767,1.878-1.344,2.856.394.911,1.553,1.037,2.747,1.037a19.885,19.885,0,0,0,7.911-1.873,12.662,12.662,0,0,1,4.631-1.263c3.509,0,4.577-4.067,4.679-6.766l8.835-7.657h14.407l10.077-8.188c4.8-.518,5.215.845,5.7,2.414.475,1.523,1.113,3.618,5.287,3.263,6.18-.514,6.759-2.056,7.478-5.493a27.941,27.941,0,0,1,.847-3.289,13.334,13.334,0,0,0,.656-6.478,4.532,4.532,0,0,1,.514-3.372c1.906-3.176,0-10.711-.46-12.394l1.78-6.552c.107-.268,2.62-6.663.634-11.956a8.074,8.074,0,0,1,.026-6.443,12.289,12.289,0,0,0-2.187.6,10.39,10.39,0,0,0,.431,6.491c1.73,4.613-.6,10.56-.654,10.719l-1.949,7.147.07.248c.667,2.337,2.1,8.9.725,11.186a6.278,6.278,0,0,0-.767,4.529,11.582,11.582,0,0,1-.571,5.687,29.684,29.684,0,0,0-.9,3.494c-.61,2.914-.754,3.607-5.822,4.03-2.681.224-2.928-.556-3.368-1.969-.727-2.342-1.871-4.385-7.949-3.673l-.268.031-9.987,8.114H163.835l-9.985,8.656,0,.42c0,.054-.089,5.348-2.838,5.348a14.17,14.17,0,0,0-5.326,1.4,18.091,18.091,0,0,1-7.215,1.738c-.318,0-.555-.015-.734-.031.2-.242.47-.527.677-.747,1.189-1.265,3.18-3.379,1.338-5.221-2.222-2.222-6.657.793-9.371,3.05a4.285,4.285,0,0,1,1.292.277,3.291,3.291,0,0,1-.185,1.213C134.232,262.127,137.461,260.188,138.443,261.17Z" transform="translate(-36.057 -16.012)"/>

      <path id="Tracé_319" data-name="Tracé 319" class="cls-4" d="M174.528,190.719c-.168.035-.333.081-.5.124a8.187,8.187,0,0,0-.969,2.23,12.291,12.291,0,0,1,2.187-.6,5.2,5.2,0,0,1,.458-.806Z" transform="translate(0.168 -16.816)"/>

      <path id="Tracé_320" data-name="Tracé 320" class="cls-4" d="M371.54,272.5l2.254-1.128-.69-1.379c-.205.227-.394.453-.641.682A2.43,2.43,0,0,0,371.54,272.5Z" transform="translate(168.616 50.463)"/>

      <path id="Tracé_321" data-name="Tracé 321" class="cls-4" d="M437.1,282.7l-7.578,8.12c-5.088.871-10.042,1.033-10.678.346-1.492-2.239-6.733-1.773-7.667-1.666a34.082,34.082,0,0,1-10.336-1.821c-1.928-.723-2.523-2.8-3.156-5-.769-2.679-1.642-5.718-5.322-5.718-5.759,0-7.5,0-10.251,6.193a42.537,42.537,0,0,0-1.791,5.465c-1.5,5.324-3.207,11.357-8.173,12.185-2.108.349-2.468-.022-2.47-.028-.216-.274.427-1.8.738-2.533.691-1.634,1.473-3.487.858-5.025a2.208,2.208,0,0,0-1.309-1.405c-.906-.251-1.66.32-2.625,1.043a9.157,9.157,0,0,1-6.874,2.294c-2.943-.268-3.549-.873-3.553-.88l-.5-.529-1.239.686.152.686c0,.006.122.621-.782,2.426-2.3,4.6-6.214,5-8.863,3.945-2.034-.815-4.557-.483-7.752-.063a57.1,57.1,0,0,1-7.641.625c-2.244,0-2.9-.423-3.089-.675-.333-.44-.039-1.481.272-2.584a12.485,12.485,0,0,0,.606-3.344c0-1.233.769-1.514,3.241-1.79,1.49-.165,3.03-.336,4.013-1.318,1.311-1.311,4.069-5.324,3.733-8.717a4.432,4.432,0,0,0-1.993-3.365,20.931,20.931,0,0,0-5.4-2.082c-4.222-1.24-9.009-2.644-10.547-6.873-.407-1.122-.747-2.109-1.048-2.98-1.568-4.542-2.217-6.419-5.8-7.615a2.883,2.883,0,0,0-2.281.072c-1.209.623-1.673,2.128-2.12,3.581-.433,1.411-.88,2.867-1.876,3.267-2,.776-4.919-2.747-5.786-4.047l-.453-.678-.73.364c-.079.039-8.145,3.934-10.748.288l-2.629-3.681a9.458,9.458,0,0,1-1.666.122l-.346.246,3.134,4.389c3.021,4.226,10.064,1.619,12.36.621,1.211,1.616,4.428,5.35,7.55,4.089,1.815-.725,2.422-2.7,2.958-4.437.32-1.037.68-2.213,1.2-2.479.072-.035.292-.146.852.039,2.714.9,3.121,2.082,4.633,6.461.305.88.649,1.876,1.061,3.01,1.856,5.106,7.349,6.718,11.763,8.014a19.939,19.939,0,0,1,4.9,1.847,2.575,2.575,0,0,1,1.179,2.009c.253,2.555-2,6.021-3.2,7.227-.523.523-1.738.656-2.912.788-2.061.229-4.884.542-4.884,3.627a10.925,10.925,0,0,1-.538,2.843c-.42,1.49-.852,3.028.035,4.2.738.972,2.144,1.407,4.563,1.407a58.3,58.3,0,0,0,7.881-.641c2.93-.381,5.243-.684,6.825-.054,3.646,1.46,8.522.529,11.2-4.834a11.184,11.184,0,0,0,.8-2,14.023,14.023,0,0,0,3.305.625,11.056,11.056,0,0,0,8.147-2.657,8.8,8.8,0,0,1,.991-.682,2.125,2.125,0,0,1,.118.251c.333.834-.294,2.313-.845,3.62-.708,1.68-1.379,3.265-.484,4.4.68.861,1.98,1.081,4.222.7,6.123-1.022,8.077-7.944,9.648-13.5a41.365,41.365,0,0,1,1.7-5.217c2.267-5.1,2.984-5.1,8.561-5.1,2.183,0,2.743,1.582,3.546,4.378.7,2.427,1.485,5.175,4.283,6.225a35.336,35.336,0,0,0,11.088,1.936c2.045-.229,5.383-.12,6.025.847,1.381,2.071,8.637,1.137,12.845.4l.307-.054,7.622-8.256,6.374-3.185a2.43,2.43,0,0,1,.922-1.825c.248-.229.436-.455.641-.682l-.137-.274Z" transform="translate(95.706 41.87)"/>

      <path id="Tracé_322" data-name="Tracé 322" class="cls-4" d="M285.819,260.314a9.465,9.465,0,0,0,1.666-.122l-.507-.708Z" transform="translate(95.864 41.545)"/>

      <path id="Tracé_323" data-name="Tracé 323" class="cls-4" d="M257.724,332.059h.107c-.031-.026-.067-.048-.1-.074C257.731,332.009,257.724,332.035,257.724,332.059Z" transform="translate(72.02 103.076)"/>

      <path id="Tracé_324" data-name="Tracé 324" class="cls-4" d="M263.743,271.91l-.333.5c.24-.046.49-.1.727-.146A2.015,2.015,0,0,0,263.743,271.91Z" transform="translate(76.846 52.091)"/>

      <path id="Tracé_325" data-name="Tracé 325" class="cls-4" d="M267.4,274.694c-.1,2.657-.251,6.674,4.4,8.532a32.4,32.4,0,0,1,8.65,5.206,31.6,31.6,0,0,0,3.134,2.255c1.989,1.194,3.272,3.452,3.219,4.808a1.14,1.14,0,0,1-.649,1.1c-1.86.93-2.289,2.069-2.318,2.86-.052,1.327.919,2.6,2.882,3.775l.584.348c1.682,1,3.59,2.128,3.675,3.182.05.647-.647,1.372-1.24,1.867l-11.654,9.711.039.475c.026.342.68,8.439,3.9,13.586,1.852,2.965,1.34,10.6-.279,15.592-.745,2.3-1.4,3-1.558,3.069l-.569.078-.19.54c-.013.035-1.3,3.512-7.722,7.016-4.52,2.464-7.517,5.518-8.223,8.38a3.68,3.68,0,0,0,.372,2.976,7.141,7.141,0,0,0,3.135,1.96,11.379,11.379,0,0,1,1.815.893,5.764,5.764,0,0,1-1.422.806c-3.631,1.614-7.735,4.089-9.3,6.493a4.946,4.946,0,0,1,1.394,1.268c.715-1.355,3.5-3.782,8.656-6.071,1.3-.579,2.631-1.333,2.623-2.523-.011-1.277-1.485-1.9-3.047-2.566a7.124,7.124,0,0,1-2.32-1.285,1.933,1.933,0,0,1-.113-1.508c.213-.869,1.375-3.962,7.312-7.2,5.836-3.183,7.833-6.43,8.4-7.6a4.438,4.438,0,0,0,1.741-2.167c1.9-4,3.72-14.56.863-19.13-2.557-4.091-3.391-10.506-3.579-12.283l10.913-9.092c1.37-1.144,1.991-2.267,1.9-3.435-.161-2.008-2.405-3.339-4.574-4.625l-.577-.34c-1.266-.762-2.008-1.551-1.986-2.119.017-.409.488-.874,1.3-1.277a2.984,2.984,0,0,0,1.669-2.679c.085-2.228-1.684-5.008-4.113-6.467a29.582,29.582,0,0,1-2.945-2.126,34.54,34.54,0,0,0-9.1-5.465c-3.439-1.375-3.331-4.23-3.237-6.746a16.055,16.055,0,0,0,.007-1.71c-.592.107-1.218.242-1.834.37C267.433,273.856,267.414,274.346,267.4,274.694Z" transform="translate(72.322 53.062)"/>

      <path id="Tracé_326" data-name="Tracé 326" class="cls-4" d="M263.728,272.247l-.693,1.039c.124.083.168.482.181.947.616-.128,1.242-.263,1.834-.37a2.907,2.907,0,0,0-.6-1.762C264.218,272.144,263.969,272.2,263.728,272.247Z" transform="translate(76.528 52.253)"/>

      <path id="Tracé_327" data-name="Tracé 327" class="cls-4" d="M258.379,331.01a3.586,3.586,0,0,0-.651,1.8c.033.026.068.048.1.074h1.741a1.444,1.444,0,0,1,.2-.608A4.945,4.945,0,0,0,258.379,331.01Z" transform="translate(72.024 102.249)"/>

      <path id="Tracé_328" data-name="Tracé 328" class="cls-4" d="M164.936,281.7l1.693.743a10.6,10.6,0,0,1,.908-1.564,6.449,6.449,0,0,0-1.5-1.067A12.568,12.568,0,0,0,164.936,281.7Z" transform="translate(-6.729 58.794)"/>

      <path id="Tracé_329" data-name="Tracé 329" class="cls-4" d="M175.107,308.506c2.908,0,3.13.736,3.387,1.586.407,1.346,1.039,2.531,4.241,2.17a9.714,9.714,0,0,0,5.7-2.912c1.741-1.533,3.113-2.745,6.572-2.113,2.329.42,4.017.037,5.014-1.146,1.466-1.736.8-4.477.51-5.424,1.32-4.724-.817-8.645-2.708-12.113-1.475-2.707-2.869-5.261-2.37-7.757,1.318-6.594,1.945-11.913-2.878-15.357-3-2.146-4.531-4.79-4.224-6.006.15-.59.8-.961,1.921-1.1,2.063-.255,2.535.392,3.128,1.216.63.871,1.5,2.067,3.947,1.252,3.209-1.07,3.524-1.364,5.931-4.208.531-.629,1.176-1.392,2-2.331,3.026-3.459,4.2-3.313,6.546-3.028a21.624,21.624,0,0,0,2.791.207c.961,0,1.706.028,2.333.052,2.313.085,3.176.116,6.8-1.374l7.931-6.193c-.113-.492-.213-.982-.292-1.466-.033-.2-.05-.394-.076-.592l-8.386,6.589c-3.146,1.287-3.8,1.265-5.907,1.187-.645-.022-1.412-.052-2.4-.052a20.25,20.25,0,0,1-2.566-.192c-2.871-.355-4.662-.355-8.164,3.646-.83.948-1.481,1.719-2.017,2.353-2.254,2.66-2.3,2.712-5.1,3.648-1.163.386-1.313.181-1.864-.58-.68-.941-1.716-2.365-4.857-1.967-2.437.3-3.239,1.518-3.483,2.481-.654,2.583,2.1,5.938,4.942,7.968,3.928,2.8,3.365,7.36,2.139,13.488-.63,3.154.919,6,2.56,9.005,1.839,3.374,3.744,6.864,2.479,10.97l-.091.3.105.292c.25.69.773,2.884-.085,3.9-.671.8-2.146.721-3.27.516-4.333-.789-6.348.983-8.125,2.547a7.972,7.972,0,0,1-4.683,2.461c-1.941.222-2.035-.1-2.266-.867-.446-1.468-1.209-2.9-5.158-2.9a11.6,11.6,0,0,0-9.578,5.35,6.449,6.449,0,0,1,1.5,1.067A9.811,9.811,0,0,1,175.107,308.506Z" transform="translate(-6.226 26.594)"/>

      <path id="Tracé_330" data-name="Tracé 330" class="cls-4" d="M201.4,241.744l-.294.229c.026.2.043.388.076.592.079.484.179.974.292,1.466l1.069-.834Z" transform="translate(23.972 26.489)"/>

      <path id="Tracé_331" data-name="Tracé 331" class="cls-4" d="M399.353,231.988c-.055-.471-.237-.592-.3-.638a1.327,1.327,0,0,0-.6-.168,24.025,24.025,0,0,1,0,3.346l1.841.148c.011-.133.031-.418.046-.8A3.1,3.1,0,0,1,399.353,231.988Z" transform="translate(191.452 17.525)"/>

      <path id="Tracé_332" data-name="Tracé 332" class="cls-4" d="M484.688,251.954a68.294,68.294,0,0,1-8.129-5.18,44.623,44.623,0,0,0,1.74-10.3c0-3.416-4.943-4.526-9.724-5.6-2.577-.579-5.239-1.176-6.3-2.023a18.252,18.252,0,0,1-3.392-3.914c-1.032-1.462-1.925-2.725-3.163-3.139-2.07-.69-12.2-1.311-16.727-.666-2.377.346-3.6-.776-5.452-2.464a21.865,21.865,0,0,0-3.993-3.067,2.412,2.412,0,0,0-2.313-.288c-1.094.545-1.277,1.96-1.473,3.457-.131,1.024-.312,2.427-.813,2.66-.139.068-.71.2-2.261-.789-2.642-1.682-3.354-2.132-4.18-1.751-.7.32-.8,1.03-.915,1.851-.231,1.619-.662,4.635-4.834,8.805-1.843,1.843-3,3.026-3.707,3.76a3,3,0,0,0-1.7.457c-2.281,1.141-1.32,3.339-.684,4.794.5,1.139,1.011,2.313.592,3.187-.388.8-1.564,1.472-3.494,1.985-6.877,1.834-8.033,3.387-8.3,4.394a1.712,1.712,0,0,0-.026.8,7.97,7.97,0,0,1-4.64,3.267c-2.616.64-5.6-.063-8.883-2.082-7.57-4.659-8.332-9.874-8.34-9.874a29.819,29.819,0,0,0-2.586-11.037,5.543,5.543,0,0,0-1.656-1.886c-1.253-1.052-1.73-1.534-.906-2.906a2.148,2.148,0,0,0,.277-2.119c-.549-1.1-2.039-1.259-4.1-1.477a15.463,15.463,0,0,1-5.916-1.444c-4.184-2.392-5.836-.122-8.576,3.635-.738,1.009-1.592,2.18-2.636,3.487-2.466,3.082-3.394,2.729-5.881,1.784a19.681,19.681,0,0,0-9.133-1.5c-5.472.342-9.036-.233-10.61-1.71a3.059,3.059,0,0,1-.95-2.385c0-2.655-2.446-5.385-4.605-7.794-.706-.788-1.375-1.533-1.849-2.167-1.479-1.971-3.786-1.8-6.23-1.61a19.912,19.912,0,0,1-4.415,0c-1.95-.279-2-1.124-2.106-2.98a8.542,8.542,0,0,0-.995-4.106c-1.871-3.119-4.387-6.9-4.413-6.934l-1.013.677c-.152.153-.3.3-.462.442.314.471,2.575,3.89,4.3,6.768a6.851,6.851,0,0,1,.734,3.259c.107,1.876.24,4.213,3.69,4.7a21.766,21.766,0,0,0,4.818.017c2.394-.179,3.781-.231,4.607.876.525.7,1.218,1.472,1.95,2.292,1.843,2.054,4.135,4.611,4.135,6.559a4.911,4.911,0,0,0,1.534,3.733c1.985,1.865,5.908,2.588,11.989,2.207a17.918,17.918,0,0,1,8.36,1.385c2.986,1.137,4.829,1.586,7.983-2.357,1.065-1.333,1.936-2.525,2.684-3.553,2.88-3.949,3.511-4.637,6.167-3.119a16.859,16.859,0,0,0,6.639,1.679,16.61,16.61,0,0,1,2.62.379,1.1,1.1,0,0,1-.187.427c-1.668,2.779.12,4.28,1.3,5.272a4.211,4.211,0,0,1,1.155,1.222,28.632,28.632,0,0,1,2.435,10.386c.028.25.773,6.152,9.214,11.345,3.716,2.289,7.173,3.063,10.292,2.3a9.894,9.894,0,0,0,6.034-4.5l.372-.619-.351-.351c.2-.318,1.3-1.5,6.951-3,2.509-.669,4.039-1.64,4.681-2.969.789-1.638.041-3.352-.562-4.729-.651-1.49-.74-1.954-.451-2.226l.194.153c.671.54,1.254-.085,1.475-.316.44-.464,1.631-1.723,4.483-4.576,4.607-4.607,5.114-8.149,5.357-9.85l.026-.185c.5.268,1.3.78,2.246,1.383,1.729,1.1,3.008,1.387,4.038.9,1.42-.664,1.656-2.488,1.865-4.1a6.638,6.638,0,0,1,.434-2.028s.157-.026.6.227a20.2,20.2,0,0,1,3.668,2.83c1.913,1.741,3.712,3.381,6.953,2.926,4.391-.623,14.235.041,15.882.588.666.222,1.431,1.305,2.241,2.453a20,20,0,0,0,3.745,4.291c1.392,1.113,4.139,1.73,7.047,2.383,3.69.828,8.282,1.858,8.282,3.794,0,4.2-1.823,10.332-1.841,10.4l-.185.617.516.386a72.793,72.793,0,0,0,8.92,5.731c1.736.869,2.364,3.9,2.54,6.513a1.327,1.327,0,0,1,.6.168c.066.046.248.166.3.638a3.1,3.1,0,0,0,.983,1.889C488.387,260.409,488.313,253.766,484.688,251.954Z" transform="translate(103.499 -11.413)"/>

      <path id="Tracé_333" data-name="Tracé 333" class="cls-4" d="M294.844,197.893c.159-.139.311-.288.462-.442l-.525.349Z" transform="translate(103.47 -11.102)"/>

      <path id="Tracé_334" data-name="Tracé 334" class="cls-4" d="M248.493,166.669a18.99,18.99,0,0,0,7.957,1.989l.255-.035c2.365-.677,9.131-2.222,11.994-1.266a4.381,4.381,0,0,1,2.4,2.013c.935,1.372,1.928,2.394,4.572,1.072.462-.231.908-.462,1.335-.686,3.243-1.69,4.9-2.422,7.08-.673a14.354,14.354,0,0,1,2.586,2.712c.78,1.013,1.509,1.971,2.989,1.878.551.011,13.525.279,15.962-.037,4.7-1.411,12.9-3.195,14.937-1.974.908.545.974,1.359,1.019,2.871.057,1.9.137,4.513,3.357,6.526,4.993,3.122,10.057,5.663,10.107,5.687l.828-1.653c-.052-.024-5.036-2.525-9.957-5.6-2.381-1.488-2.433-3.2-2.488-5.014-.044-1.553-.1-3.311-1.915-4.4-3.392-2.03-15.095,1.392-16.269,1.756-1.717.216-10.918.091-15.62-.006-.514.028-.714-.157-1.486-1.159a16.181,16.181,0,0,0-2.9-3.03c-3.219-2.573-5.94-1.161-9.09.479-.42.218-.854.445-1.307.671-1.42.712-1.527.553-2.22-.462a6.161,6.161,0,0,0-3.344-2.723c-3.777-1.259-11.8.884-12.959,1.207a17.439,17.439,0,0,1-6.968-1.775Z" transform="translate(64.186 -38.614)"/>

      <path id="Tracé_335" data-name="Tracé 335" class="cls-4" d="M245.717,183.985c-1.658,4.15-2.4,11.063,2.376,13.107,1.95.836,2.984,3.958,3.9,6.713.976,2.945,1.817,5.487,3.812,5.886,1.551.311,2.849,1.636,4.1,2.921a12.855,12.855,0,0,0,3.191,2.644c.523.263.468,1.222.324,2.657-.194,1.95-.46,4.624,2.3,5.546,2.315.771,3.318.318,4.483-.4a4.379,4.379,0,0,1,2.708-.8,13.594,13.594,0,0,0,5.1-1.2c1.375-.534,2.459-.952,3.457-.708a8.314,8.314,0,0,1,3.013,2.2,19.01,19.01,0,0,0,5.624,4.028,1.375,1.375,0,0,1,.83.68c.2.571-.4,1.627-.876,2.475-.649,1.155-1.263,2.246-.81,3.263a2.211,2.211,0,0,0,1.7,1.168,68.212,68.212,0,0,0,9.534.854c2.392,0,4.557-.255,5.589-1.028a21.307,21.307,0,0,0,2.035-1.8c1.56-1.51,1.937-1.71,2.54-1.307a17.173,17.173,0,0,0,5.478,1.823,4.608,4.608,0,0,1,.512-1.187c.113-.187.179-.364.274-.547a17.042,17.042,0,0,1-5.237-1.627c-1.945-1.3-3.488.2-4.851,1.516a19.755,19.755,0,0,1-1.86,1.649c-1.514,1.133-8.937.58-13.669-.165-.24-.052-.359-.115-.353-.1a5.556,5.556,0,0,1,.727-1.607c.691-1.229,1.473-2.623,1.015-3.975a3.069,3.069,0,0,0-1.852-1.786,17.26,17.26,0,0,1-5.084-3.673c-1.3-1.231-2.427-2.294-3.834-2.646-1.564-.388-3.028.174-4.574.778a11.933,11.933,0,0,1-4.43,1.076,6.135,6.135,0,0,0-3.684,1.082c-.806.5-1.252.776-2.921.22-1.235-.41-1.268-1.416-1.05-3.609.163-1.623.366-3.642-1.337-4.494a11.464,11.464,0,0,1-2.7-2.281c-1.385-1.416-2.952-3.019-5.062-3.44-.943-.189-1.729-2.56-2.422-4.655-1.033-3.124-2.205-6.666-4.921-7.831-3.66-1.568-2.516-7.9-1.387-10.721,1.394-3.487-2.185-9.016-2.6-9.635l-.664.442a2.388,2.388,0,0,1-.011.812,2.234,2.234,0,0,1-.29.715C244.954,178.886,246.453,182.145,245.717,183.985Z" transform="translate(60.264 -30.125)"/>

      <path id="Tracé_336" data-name="Tracé 336" class="cls-4" d="M244.436,175.276l-.874.582c.159.24.361.575.573.945a2.234,2.234,0,0,0,.29-.715A2.388,2.388,0,0,0,244.436,175.276Z" transform="translate(60.001 -29.922)"/>

      <path id="Tracé_337" data-name="Tracé 337" class="cls-4" d="M282.958,207.023c.649.124,1.118.2,1.176.2l.261-1.83c-.17-.024-.4-.063-.651-.107-.094.183-.161.36-.274.547A4.609,4.609,0,0,0,282.958,207.023Z" transform="translate(93.436 -4.45)"/>

      <path id="Tracé_338" data-name="Tracé 338" class="cls-4" d="M390.962,322.887a2.632,2.632,0,0,0-.24.789l3.518,1.568.751-1.69-3.307-1.473A2.421,2.421,0,0,0,390.962,322.887Z" transform="translate(184.895 94.671)"/>

      <path id="Tracé_339" data-name="Tracé 339" class="cls-4" d="M430.963,327.655v.351q0,.083-.006.139a17.135,17.135,0,0,1-3.448-1.86c-3.165-1.971-7.1-4.422-9.876-2.843-3.237,1.849-6.472,5.075-6.1,7.408a2.221,2.221,0,0,0,1.984,1.827c.353.07.754.142,1.185.218,2.222.392,5.583.983,6.376,2.451a1.9,1.9,0,0,1-.078,1.7c-1.608,3.753-5.953,5.084-9.184,5.084-2.5,0-3.61.73-6.3,2.49-1.063.7-2.4,1.571-4.211,2.658a17.738,17.738,0,0,1-5.668,2.283c-1.875.434-2.934.813-2.934,3.526,0,.647.052,1.314.105,1.984.261,3.226.466,5.773-5.049,7.153-7.079,1.769-6.709,5.825-6.439,8.787.046.525.094,1.037.094,1.516,0,.728-.085.8-1.305,1.041a5.288,5.288,0,0,0-4.241,2.936c-1.433,2.867-2.727,5.818-1.466,7.63.743,1.065,2.143,1.464,4.278,1.229,6.173-.688,7.979-.307,8.4,1.771.434,2.167.268,2.422-.81,4.087-.272.422-.592.915-.958,1.525-.436.723-.71,1.287-.93,1.742-.621,1.279-.66,1.355-4.145,2.226-4.455,1.113-9.732-4.093-9.783-4.147l-.253-.253-.353-.015c-6.526-.327-8.206-1.56-9.318-2.376-1.252-.917-2.174-1.446-5.261-.756-.107.013-10.654,1.248-14.941,1.248h-6.7l.512.333,1.264,1.516h4.923c4.394,0,14.719-1.207,15.25-1.274,2.514-.562,2.938-.253,3.858.423,1.268.932,3.176,2.331,9.972,2.712,1.08,1.006,5.226,4.592,9.537,4.59a7.159,7.159,0,0,0,1.74-.207c3.919-.98,4.42-1.281,5.359-3.213.2-.416.453-.934.852-1.6.355-.588.662-1.065.924-1.47,1.255-1.939,1.627-2.686,1.07-5.457-.86-4.311-5.718-3.768-10.412-3.245-1.346.146-2.25-.009-2.557-.451-.741-1.059.9-4.343,1.6-5.744a3.475,3.475,0,0,1,2.949-1.95c1.111-.222,2.792-.555,2.792-2.853,0-.532-.05-1.1-.1-1.684-.255-2.8-.5-5.439,5.045-6.824,7.038-1.76,6.709-5.829,6.446-9.1-.052-.619-.1-1.237-.1-1.836,0-1.375,0-1.375,1.5-1.725a19.4,19.4,0,0,0,6.2-2.5c1.839-1.1,3.195-1.993,4.272-2.7,2.564-1.682,3.339-2.189,5.285-2.189,3.794,0,8.92-1.625,10.883-6.2a3.665,3.665,0,0,0,0-3.313c-1.218-2.254-4.953-2.913-7.68-3.392-.416-.074-.8-.142-1.144-.211-.486-.1-.51-.255-.52-.309-.15-.926,1.841-3.6,5.186-5.507,1.821-1.035,5.38,1.187,7.981,2.806,2.527,1.579,4.2,2.62,5.413,1.947a1.731,1.731,0,0,0,.849-1.42l4.354-4.9,2.026.9a2.63,2.63,0,0,1,.24-.789,2.42,2.42,0,0,1,.721-.806l-3.472-1.547Z" transform="translate(136.445 93.96)"/>
      
      <path id="Tracé_340" data-name="Tracé 340" class="cls-4" d="M333.527,360.51H335.5l-1.263-1.517-.512-.332h-.2Z" transform="translate(136.354 125.716)"/>
      
    </g>
  </g>
</svg>
