<svg xmlns="http://www.w3.org/2000/svg" width="16.038" height="25.085" viewBox="0 0 16.038 25.085">
  <defs>
    <style>
      .cls-1 {
        fill: #266fea;
        stroke: #fff;
        stroke-linecap: round;
        stroke-linejoin: round;
      }
    </style>
  </defs>
  <path id="Tracé_350" data-name="Tracé 350" class="cls-1" d="M1726.116,10436.753s-16.914-24.086,0-24.086S1726.116,10436.753,1726.116,10436.753Z" transform="translate(-1718.097 -10412.167)"/>
</svg>
